<?xml version="1.0" encoding="UTF-8" standalone="no"?>
<!-- Created with Inkscape (http://www.inkscape.org/) -->

<svg
   xmlns:dc="http://purl.org/dc/elements/1.1/"
   xmlns:cc="http://creativecommons.org/ns#"
   xmlns:rdf="http://www.w3.org/1999/02/22-rdf-syntax-ns#"
   xmlns:svg="http://www.w3.org/2000/svg"
   xmlns="http://www.w3.org/2000/svg"
   xmlns:sodipodi="http://sodipodi.sourceforge.net/DTD/sodipodi-0.dtd"
   xmlns:inkscape="http://www.inkscape.org/namespaces/inkscape"
   version="1.0"
   width="1920"
   height="1080"
   id="svg2090"
   sodipodi:version="0.32"
   inkscape:version="0.91 r13725"
   sodipodi:docname="schweden.svg"
   inkscape:output_extension="org.inkscape.output.svg.inkscape">
  <sodipodi:namedview
     inkscape:window-height="844"
     inkscape:window-width="1600"
     inkscape:pageshadow="2"
     inkscape:pageopacity="0.0"
     guidetolerance="10.0"
     gridtolerance="10.0"
     objecttolerance="10.0"
     borderopacity="1.0"
     bordercolor="#666666"
     pagecolor="#ffffff"
     id="base"
     showgrid="false"
     inkscape:zoom="0.8137931"
     inkscape:cx="920.1119"
     inkscape:cy="555.98961"
     inkscape:window-x="0"
     inkscape:window-y="30"
     inkscape:window-maximized="1"
     inkscape:current-layer="svg2090" />
  <metadata
     id="metadata1880">
    <rdf:RDF>
      <cc:Work
         rdf:about="">
        <dc:title></dc:title>
        <dc:date>2007-04-06</dc:date>
        <dc:creator>
          <cc:Agent>
            <dc:title>Lokal_Profil</dc:title>
          </cc:Agent>
        </dc:creator>
        <cc:license
           rdf:resource="http://creativecommons.org/licenses/by-sa/2.5/" />
        <dc:rights>
          <cc:Agent>
            <dc:title>cc-by-sa-2.5</dc:title>
          </cc:Agent>
        </dc:rights>
        <dc:source>Original borders from SCB</dc:source>
        <dc:format>image/svg+xml</dc:format>
        <dc:type
           rdf:resource="http://purl.org/dc/dcmitype/StillImage" />
      </cc:Work>
      <cc:License
         rdf:about="http://creativecommons.org/licenses/by-sa/2.5/">
        <cc:permits
           rdf:resource="http://web.resource.org/cc/Reproduction" />
        <cc:permits
           rdf:resource="http://web.resource.org/cc/Distribution" />
        <cc:requires
           rdf:resource="http://web.resource.org/cc/Notice" />
        <cc:requires
           rdf:resource="http://web.resource.org/cc/Attribution" />
        <cc:permits
           rdf:resource="http://web.resource.org/cc/DerivativeWorks" />
        <cc:requires
           rdf:resource="http://web.resource.org/cc/ShareAlike" />
      </cc:License>
    </rdf:RDF>
  </metadata>
  <defs
     id="defs2092">
    <inkscape:perspective
       sodipodi:type="inkscape:persp3d"
       inkscape:vp_x="0 : 290 : 1"
       inkscape:vp_y="0 : 1000 : 0"
       inkscape:vp_z="255 : 290 : 1"
       inkscape:persp3d-origin="127.5 : 193.33333 : 1"
       id="perspective2587" />
  </defs>
  <style
     type="text/css"
     id="style_css_sheet">
.lan
{
     fill:#e6e6e6;
     fill-rule:evenodd;
     stroke:black;
     stroke-width:0.10001;
     stroke-linecap:square;
     stroke-miterlimit:4;
     stroke-dasharray:none;
     stroke-opacity:1;
}

</style>
  <g
     class="lan"
     id="AB"
     transform="matrix(0.95,0,0,0.95,703.40523,112.08853)"
     style="fill:#3086c0;fill-opacity:1;fill-rule:evenodd;stroke:none;stroke-width:0.10001;stroke-linecap:square;stroke-miterlimit:4;stroke-dasharray:none;stroke-opacity:1">
    <path
       style="fill:#3086c0;fill-opacity:1;stroke:none"
       d="m 292.42803,584.5987 c -1.17265,3.15616 -2.56481,-3.27334 -2.187,-1.813 -0.56849,0.98262 -2.1065,7.39793 -0.375,4.5 2.51807,-0.44096 -0.59759,9.45706 -2.75,1.75 -5.77422,2.45446 -7.58533,-12.07481 -3.625,-10.75 0.83757,-0.81472 -0.4256,-4.77446 4.562,-0.25 1.80757,5.61018 -0.69218,-4.94514 3.313,0.063 4.17415,1.32649 1.87019,-2.13951 6.25,-2.875 3.95095,0.53644 -1.26552,-2.98652 1.937,-5.25 2.49146,-0.1827 -1.02457,3.702 3.438,1.937 -2.18945,-1.12986 -0.18522,-1.52169 -0.625,-2.625 3.15578,0.73479 5.53824,-4.0447 8.53985,-6.06335 3.10627,-5.68323 8.82457,-4.77041 6.64715,-9.12365 -0.50588,-4.36985 -6.34921,-9.76376 -6.52166,-15.08075 -1.94897,1.97619 -8.22858,4.20901 -7.00346,9.61192 0.0541,5.93152 -5.52637,7.86736 -9.03688,10.90583 -2.97052,2.71043 -5.71415,-0.54237 -7.125,2.563 -1.25814,1.31277 -1.06835,7.05509 0.125,6.062 0.30709,1.11704 2.21571,1.00849 3.5,2.25 1.5708,-4.31028 -0.74029,4.15714 3.25,4.375 2.08016,-0.16962 2.83116,0.51494 5.75,0.188 0.21459,0.53711 5.64819,2.67704 1.75,2.437 2.92385,1.55381 4.08224,3.5655 3.187,5.125 -2.53723,-0.40815 -2.57847,3.69808 -3.812,2.188 2.25098,-3.15239 -3.02202,1.07333 -3.875,2.437 -1.22554,-0.11685 -0.67328,4.02423 -2.625,6.688 -2.04477,6.64976 -2.90588,-2.24203 -3,-5.063 -0.67304,-1.50592 -0.46698,-3.08253 0.312,-4.187 z"
       id="polygon89"
       inkscape:connector-curvature="0" />
    <path
       style="fill:#3086c0;fill-opacity:1;stroke:none"
       d="m 304.24103,573.4737 c 2.12953,0.005 1.90742,4.74198 3.875,2.937 5.90502,-2.87255 0.11825,4.57522 -1.813,1.75 -3.23749,-0.60863 -1.20056,-5.64011 -3.625,-2.562 -2.95862,0.86085 -0.3384,-3.46371 1.563,-2.125 z"
       id="polygon91"
       inkscape:connector-curvature="0" />
    <path
       style="fill:#3086c0;fill-opacity:1;stroke:none"
       d="m 306.30303,571.8487 c -0.87185,2.75449 1.75956,6.4239 3.75,2.75 -2.57373,-1.59357 0.99163,-1.25023 -3.437,-3.688 -1.03215,0.0432 -1.0492,0.2046 -0.313,0.938 z"
       id="polygon93"
       inkscape:connector-curvature="0" />
    <path
       style="fill:#3086c0;fill-opacity:1;stroke:none"
       d="m 292.30303,575.2237 c -1.4777,3.10009 -6.4856,-7.90189 -2.125,-4 0.52172,1.4499 1.6743,1.21704 2.125,4 z"
       id="polygon95"
       inkscape:connector-curvature="0" />
    <path
       style="fill:#3086c0;fill-opacity:1;stroke:none"
       d="m 288.67803,573.7857 c -1.40924,2.75843 6.52217,4.86639 3.938,2.563 -3.43423,1.71144 -5.11037,-8.75169 -5.188,-3.5 0.88218,-0.41905 0.29325,1.3858 1.25,0.937 z"
       id="polygon97"
       inkscape:connector-curvature="0" />
    <path
       style="fill:#3086c0;fill-opacity:1;stroke:none"
       d="m 308.67803,569.3487 c 0.016,-1.24388 3.54299,-4.62912 0.938,-4 -1.78843,2.1109 -1.55558,2.05603 -2.125,3.562 0.40246,1.02524 0.80332,2.37559 1.187,0.438 z"
       id="polygon99"
       inkscape:connector-curvature="0" />
    <path
       style="fill:#3086c0;fill-opacity:1;stroke:none"
       d="m 305.74103,587.6607 c 3.09147,-4.65082 -0.85391,-4.6846 -0.875,-1.437 -1.39667,1.21621 0.30812,1.18628 0.875,1.437 z"
       id="polygon101"
       inkscape:connector-curvature="0" />
    <path
       style="fill:#3086c0;fill-opacity:1;stroke:none"
       d="m 316.49103,561.4107 c -6.41178,-0.60179 -3.41983,6.74974 0,0 z"
       id="polygon103"
       inkscape:connector-curvature="0" />
    <path
       style="fill:#3086c0;fill-opacity:1;stroke:none"
       d="m 301.99103,591.7237 c 2.28193,-0.89967 3.98216,-4.54571 -0.25,-1.375 -2.8425,2.61594 -0.55889,0.31665 0.25,1.375 z"
       id="polygon105"
       inkscape:connector-curvature="0" />
    <path
       style="fill:#3086c0;fill-opacity:1;stroke:none"
       d="m 298.80303,589.5357 c 1.46994,-0.20506 1.67578,-1.42567 2.438,-2.5 -1.6621,-1.16859 -3.61729,2.17669 -2.438,2.5 z"
       id="polygon107"
       inkscape:connector-curvature="0" />
    <path
       style="fill:#3086c0;fill-opacity:1;stroke:none"
       d="m 311.74103,572.9737 c 1.30406,7.1464 -4.0603,-2.79524 0,0 z"
       id="polygon109"
       inkscape:connector-curvature="0" />
    <path
       style="fill:#3086c0;fill-opacity:1;stroke:none"
       d="m 286.05303,573.2857 c 2.00921,4.60663 0.43974,-4.58934 -0.437,-0.562 l 0,0.187 0.437,0.375 z"
       id="polygon111"
       inkscape:connector-curvature="0" />
    <path
       style="fill:#3086c0;fill-opacity:1;stroke:none"
       d="m 298.92803,572.4107 c 2.60165,-0.30458 3.80996,1.66661 0.813,1.688 -0.20725,-0.6957 -0.72126,-1.16746 -0.813,-1.688 z"
       id="polygon113"
       inkscape:connector-curvature="0" />
    <path
       style="fill:#3086c0;fill-opacity:1;stroke:none"
       d="m 294.49103,574.8487 c -0.91713,3.94921 -3.29593,-3.16365 0,0 z"
       id="polygon115"
       inkscape:connector-curvature="0" />
    <path
       style="fill:#3086c0;fill-opacity:1;stroke:none"
       d="m 314.42803,571.0987 c 0.48709,-3.49257 2.38293,-0.18538 -0.312,0.687 l 0.062,-0.312 0.25,-0.375 z"
       id="polygon117"
       inkscape:connector-curvature="0" />
    <path
       style="fill:#3086c0;fill-opacity:1;stroke:none"
       d="m 312.24103,576.0357 c 3.92725,-1.98095 -1.90626,3.63219 0,0 z"
       id="polygon119"
       inkscape:connector-curvature="0" />
    <path
       style="fill:#3086c0;fill-opacity:1;stroke:none"
       d="m 316.17803,571.5357 c -1.35706,3.46968 0.38109,-3.55932 0,0 z"
       id="polygon121"
       inkscape:connector-curvature="0" />
    <path
       style="fill:#3086c0;fill-opacity:1;stroke:none"
       d="m 311.11603,579.4737 c 2.98674,-1.84281 -1.39238,3.09966 0,0 z"
       id="polygon123"
       inkscape:connector-curvature="0" />
    <path
       style="fill:#3086c0;fill-opacity:1;stroke:none"
       d="m 315.61603,573.0987 c 0.0301,3.21323 -2.22282,1.53493 0,0 z"
       id="polygon125"
       inkscape:connector-curvature="0" />
    <path
       style="fill:#3086c0;fill-opacity:1;stroke:none"
       d="m 303.11603,570.4737 c -0.0474,2.35804 2.0128,-2.06726 0,0 z"
       id="polygon127"
       inkscape:connector-curvature="0" />
  </g>
  <path
     style="fill:#005b99;fill-opacity:1;fill-rule:evenodd;stroke:none;stroke-width:0.10001;stroke-linecap:square;stroke-miterlimit:4;stroke-dasharray:none;stroke-opacity:1"
     d="m 970.66104,606.0918 c -1.55903,4.97154 -0.56575,14.92319 -6.7148,14.64299 -4.52172,0.77549 -6.40015,7.04922 -4.55164,11.2591 3.2692,4.65665 -0.79985,9.3432 3.14051,14.55946 0.20984,2.04182 12.66212,7.45937 10.1089,2.19559 -2.16427,-5.17371 4.79053,4.57385 3.36078,-3.35089 1.24214,-3.84704 4.01981,-0.043 6.65,-2.85 3.77258,-2.47777 8.52049,-4.78601 8.97931,-10.12464 -0.42857,-3.76865 3.54057,-8.2231 2.77694,-12.37849 0.94776,0.27534 -5.46674,-13.8651 -3.47421,-4.575 -4.08696,6.72925 -6.94928,-10.49454 -11.78516,-6.70625 -4.96124,6.90186 -1.09222,-6.60059 -8.49063,-2.67187 z"
     id="C"
     inkscape:connector-curvature="0" />
  <path
     style="fill:#005b99;fill-opacity:1;fill-rule:evenodd;stroke:none;stroke-width:0.10001;stroke-linecap:square;stroke-miterlimit:4;stroke-dasharray:none;stroke-opacity:1"
     d="m 943.29259,674.10788 c 5.70559,2.27023 6.03646,11.00332 12.97217,10.35541 5.99866,5.86517 7.24662,-0.72493 9.88768,1.16334 -3.40815,-7.08951 4.24733,-0.0403 6.29375,-5.1661 1.75936,-1.40305 5.95963,-3.52348 2.1375,-7.8375 -6.33635,1.0616 -5.79928,-9.63188 -4.60572,-12.70667 0.51183,-8.72613 -4.1685,-0.3551 -5.22513,-4.23683 0.66959,-4.4561 -6.13387,0.43134 -10.4754,-0.80915 -6.74351,0.73814 -5.57833,3.93991 -12.45307,5.45308 1.71675,2.58027 13.72043,0.44075 2.29947,3.63082 -2.39149,2.69705 -9.97932,4.83757 -6.29067,9.11559 3.00837,-1.57912 1.83169,-2.28017 5.45942,1.03801 z"
     id="D"
     inkscape:connector-curvature="0" />
  <path
     style="fill:#3086c0;fill-opacity:1;fill-rule:evenodd;stroke:none;stroke-width:0.10001;stroke-linecap:square;stroke-miterlimit:4;stroke-dasharray:none;stroke-opacity:1"
     d="m 921.31658,707.82595 c 3.46899,5.01023 0.21356,10.78957 4.09735,16.4464 7.3042,2.51275 6.89178,-5.39903 12.14833,-5.63808 4.0747,4.46666 9.24016,-2.45107 5.71937,-6.49221 1.28253,-1.72399 4.89489,-6.84247 9.04435,-3.20696 2.17979,0.57154 8.51877,8.13181 5.17072,-0.43624 2.1073,-2.46068 1.86741,-6.38078 2.23598,-9.69791 -11.30591,-3.52357 4.55588,-1.2299 0.2375,-7.3625 -4.0081,-6.42728 -12.44011,0.95999 -11.28125,-4.57235 7.90834,2.62396 12.87999,-0.53583 2.03963,-1.48122 -2.29501,-5.72852 -7.44632,-8.87252 -11.71823,-12.70893 -4.15489,1.80754 -5.31442,7.43299 -9.14375,7.4214 -4.70111,-2.20139 -9.13211,7.4545 -8.90141,10.59615 5.23769,3.66014 -4.72957,3.50092 -5.36805,8.34879 -1.16389,5.08794 -3.88432,11.08021 2.03821,10.92116 1.61125,-0.42422 3.28126,-0.0723 3.68125,-2.1375 z"
     id="E"
     inkscape:connector-curvature="0" />
  <path
     style="fill:#005b99;fill-opacity:1;fill-rule:evenodd;stroke:none;stroke-width:0.10001;stroke-linecap:square;stroke-miterlimit:4;stroke-dasharray:none;stroke-opacity:1"
     d="m 920.76768,717.12629 c 3.38917,-8.03135 -2.88945,-6.32319 -7.71875,-6.23485 -4.55358,0.49006 -6.26777,9.29255 -9.025,11.99375 -3.99989,-4.10657 3.66316,-12.50731 -1.0089,-14.4875 1.00098,9.15214 -6.37549,0.69003 -8.2368,5.98807 0.37392,5.41914 0.037,11.39549 -1.38545,16.06743 -1.78984,5.19499 -6.53652,8.67926 -8.9626,12.50075 -4.40621,1.02828 -5.19978,11.35772 -0.2964,5.8786 5.81607,-5.2925 7.28648,8.41225 9.14375,1.9589 3.38128,2.66836 7.44577,-2.25245 10.33125,2.73125 3.28519,9.26896 3.751,-2.15574 3.20625,-6.29375 4.58169,1.34064 7.3918,-5.80068 11.6964,-1.1875 3.36573,3.95523 4.43708,-4.00224 10.2125,-1.54375 6.00188,4.78847 -1.0167,-9.93854 4.75,-8.25265 1.26319,-5.23587 0.29362,-8.95843 -6.06946,-10.40947 -6.26444,1.79153 -3.80716,-5.71763 -6.63679,-8.70928 z"
     id="F"
     inkscape:connector-curvature="0" />
  <path
     style="fill:#3086c0;fill-opacity:1;fill-rule:evenodd;stroke:none;stroke-width:0.10001;stroke-linecap:square;stroke-miterlimit:4;stroke-dasharray:none;stroke-opacity:1"
     d="m 922.39983,747.63926 c -3.66079,4.24222 -5.67536,-4.94759 -10.86515,-0.5339 -5.4911,1.54251 -4.45893,6.20122 -4.75,11.51875 -3.41905,0.33516 -4.49638,-11.24876 -9.77696,-4.60684 -4.38523,-6.9806 -2.76249,6.69646 -8.19416,5.25597 -6.69598,-1.99196 -3.52372,7.14106 -2.03873,10.98837 -0.78994,7.55848 4.40095,7.82961 10.56799,5.00498 3.87242,-3.00647 7.25096,-1.2806 12.89673,0.50796 4.35196,3.71498 8.32343,4.15112 11.95637,0.12721 4.74565,2.37034 6.66322,-3.22706 7.27001,-8.19375 -0.18791,-4.3947 1.81187,-9.48195 6.11515,-9.38125 7.69736,-1.6398 -3.21675,-9.18907 -4.52597,-11.52369 -4.54661,-1.05032 -7.40414,-1.50005 -8.65528,0.83619 z"
     id="G"
     inkscape:connector-curvature="0" />
  <g
     class="lan"
     id="H"
     transform="matrix(0.95,0,0,0.95,701.44505,116.90361)"
     style="fill:#003050;fill-opacity:1;fill-rule:evenodd;stroke:none;stroke-width:0.10001;stroke-linecap:square;stroke-miterlimit:4;stroke-dasharray:none;stroke-opacity:1">
    <path
       style="fill:#003050;fill-opacity:1;stroke:none"
       d="m 249.36603,668.0357 c 8.04801,9.04277 -8.684,2.93098 -4.375,10.813 -5.35893,-1.14323 -3.57052,13.42603 -3.25,12.5 4.65578,-2.25395 6.54583,5.68346 11.40736,7.30528 5.32282,1.18218 5.46535,-8.83665 7.46764,-12.43028 5.27708,-6.20039 3.99075,-6.08379 4.85288,-14.15746 3.74254,-6.01175 -1.60309,-10.20064 1.83412,-16.40554 5.4938,-1.55148 1.13121,-9.50904 1.938,-10.25 3.3526,-3.02769 -6.17565,-12.8786 1.80618,-10.20813 2.31886,-4.20287 -4.16956,-8.38567 -6.50241,-9.62563 -4.15664,-3.46357 -8.9973,1.6676 -9.05232,4.03112 3.17886,4.47396 -2.15429,10.70294 -6.35216,6.36346 -4.83529,0.25231 -9.8568,7.5499 -1.75803,9.94483 0.13559,5.44163 -3.13246,5.12221 -3.20667,10.94137 -2.13255,3.8468 1.62657,9.13698 5.19041,11.17798 z"
       id="polygon75"
       inkscape:connector-curvature="0" />
    <path
       style="fill:#003050;fill-opacity:1;stroke:none"
       d="m 266.99103,680.4737 c -4.25511,7.4196 -2.57764,15.12038 -2.313,23 4.24447,-4.69458 3.59204,-12.08498 6.063,-17.25 1.00144,-6.25158 3.65264,-10.84052 5.375,-16.188 0.50403,-3.63087 3.71834,-9.83394 3.687,-14.062 -5.05564,0.62494 -3.23598,9.40627 -6.437,13.5 -1.82261,4.75269 -4.75163,5.9708 -6.375,11 z"
       id="polygon77"
       inkscape:connector-curvature="0" />
  </g>
  <path
     style="fill:#003050;fill-opacity:1;fill-rule:evenodd;stroke:none;stroke-width:0.10001;stroke-linecap:square;stroke-miterlimit:4;stroke-dasharray:none;stroke-opacity:1"
     d="m 997.87439,720.07211 c 5.41321,-4.63413 4.45571,-1.61297 9.93451,-3.81067 4.0081,-4.20812 8.3849,-3.36142 3.4842,0.66332 -2.6762,5.34253 -5.7766,5.27554 -7.147,9.38545 -3.4516,4.98081 6.6724,9.69886 -0.1943,11.39201 -0.5181,4.9945 -5.18309,7.48134 -7.10038,10.70735 1.21662,3.18877 -6.16575,12.48385 -3.89584,3.75848 3.75186,-3.10384 -1.86338,-4.6493 -2.56244,-9.47454 4.17771,-4.34255 -3.7417,-11.18108 2.83079,-14.27191 2.48166,-2.25169 2.41382,-6.22177 4.65046,-8.34949 z"
     id="I"
     inkscape:connector-curvature="0" />
  <path
     style="fill:#005b99;fill-opacity:1;fill-rule:evenodd;stroke:none;stroke-width:0.10001;stroke-linecap:square;stroke-miterlimit:4;stroke-dasharray:none;stroke-opacity:1"
     d="m 911.95875,787.01027 c -3.13491,7.25914 6.93943,10.9022 2.34905,2.0482 4.23958,-0.84094 8.73424,-0.40632 13.26705,-1.0982 0.0165,3.28044 11.43089,-3.86489 8.54196,2.64366 1.8344,4.74107 10.23791,-7.17146 6.47944,-7.51241 -5.29467,0.89699 -7.5993,-9.9484 -10.86515,-6.82765 -4.92044,0.17746 -7.67152,0.41714 -11.59926,2.65278 -3.23207,5.47152 -8.43929,-6.05711 -11.49809,0.55347 -1.04046,3.59375 0.64725,6.62929 3.325,7.54015 z"
     id="K"
     inkscape:connector-curvature="0" />
  <path
     style="fill:#005b99;fill-opacity:1;fill-rule:evenodd;stroke:none;stroke-width:0.10001;stroke-linecap:square;stroke-miterlimit:4;stroke-dasharray:none;stroke-opacity:1"
     d="m 891.55068,778.31813 c 6.16699,-0.84331 7.72671,-4.52418 12.93591,-2.30859 5.46053,1.45179 -0.8259,5.16591 2.73909,10.38359 3.91622,3.96597 -0.0229,8.82626 -2.7911,12.1125 -6.82594,4.52172 0.80948,10.67316 0.0325,15.5934 -2.67329,7.96974 -7.78287,2.47323 -13.39138,2.753 -4.35614,1.77061 -8.85036,4.62508 -13.7161,1.72235 -3.44116,0.27569 -8.9377,-2.72631 -4.5714,-1.54375 0.8373,-3.43121 0.82227,-7.27918 3.8,-10.27235 -3.99544,-2.49204 -2.0167,-5.88183 -5.39196,-9.75431 -1.02569,-5.12354 -4.96905,-8.74105 -5.77054,-13.93584 -1.61547,-1.61101 11.41025,6.39768 5.81875,-1.425 -5.34616,-4.26569 -0.26884,-6.5207 4.07208,-3.95665 0.41866,7.21848 8.38883,0.76313 11.72167,1.16555 1.55401,0.36442 3.01425,-0.21109 4.5125,-0.5339 z"
     id="M"
     inkscape:connector-curvature="0"
     sodipodi:nodetypes="ccccccccccccccc" />
  <path
     style="fill:#003050;fill-opacity:1;fill-rule:evenodd;stroke:none;stroke-width:0.10001;stroke-linecap:square;stroke-miterlimit:4;stroke-dasharray:none;stroke-opacity:1"
     d="m 882.64575,759.59051 c -0.58368,5.88468 4.09902,10.90895 2.85,16.26875 -3.91025,4.21126 -12.42757,4.15806 -11.23086,-1.91624 3.30953,-7.40535 -4.11512,-5.51456 -5.39414,-10.37391 -0.38135,-5.87717 -6.50346,-7.20366 -7.18485,-12.5875 -2.43694,-5.17911 -2.13796,-9.69077 -2.9612,-13.19406 1.26817,-6.41328 -5.69317,5.69503 -3.09505,-4.91579 -0.45303,-3.6469 10.971,-4.89843 8.0161,1.6625 1.95862,6.01152 0.30532,8.70909 7.30265,5.7 5.47627,2.85908 4.29178,6.55386 8.66875,7.48125 -3.72555,8.29103 5.31502,-1.66886 7.58608,2.45585 3.43335,1.51363 5.806,8.53318 -0.32235,8.70314 -0.91184,-0.26971 -3.4663,-0.23142 -4.23513,0.71601 z"
     id="N"
     inkscape:connector-curvature="0" />
  <g
     class="lan"
     id="O"
     transform="matrix(0.95,0,0,0.95,697.90153,114.69094)"
     style="fill:#3086c0;fill-opacity:1;fill-rule:evenodd;stroke:none;stroke-width:0.10001;stroke-linecap:square;stroke-miterlimit:4;stroke-dasharray:none;stroke-opacity:1">
    <path
       style="fill:#3086c0;fill-opacity:1;stroke:none"
       d="m 173.67803,644.2237 c -5.61541,4.13198 -8.32449,0.13039 -8.5,-3.625 4.29001,-1.83997 -7.78224,0.0309 -1.312,-3.313 -1.96717,-2.10806 -1.83723,-6.27102 0.5272,-9.5115 0.46317,-4.99712 3.91533,-8.40897 1.2228,-12.5505 -0.30329,-4.57206 -5.27362,4.54004 -9.063,3.375 5.64031,-5.24115 -0.0871,-1.14497 0,-5.625 -0.85117,-0.85091 -5.63799,-2.02517 -1.5,-3.563 0.21986,-5.981 -1.86232,-10.95355 -2.125,-16.875 -0.7441,-3.72513 -1.56275,-10.77254 4.563,-11 0.4786,6.33818 3.98737,14.12844 6.77195,3.99351 -5.4e-4,-8.42203 7.343,-8.47842 8.41743,-9.04872 4.35278,-1.55267 8.14547,8.48014 12.88474,3.69966 4.05905,4.53995 -2.50129,11.30216 -4.16434,16.13823 -0.36802,5.54191 4.47146,7.81264 -3.72278,12.78032 -3.02554,6.31035 7.65185,0.18845 6.688,1.375 5.40554,-0.82378 6.56779,-11.02514 11.562,-9.125 -4.02344,10.01495 1.68616,6.25054 5.60688,0.95771 7.0011,-2.23812 10.50783,-3.53705 4.01812,-6.45771 5.92425,1.1623 6.96967,-4.01797 9.813,-8.813 6.04655,2.07836 3.32764,11.23142 8.3464,13.125 6.47463,-1.58311 1.06067,1.98442 0.0286,7.5 -2.45225,5.29496 -6.41091,10.06587 -7.25,16.063 -2.33033,4.09011 -5.90148,4.63125 -9.91837,4.79356 -2.41653,4.59394 0.85532,12.02722 -2.33163,16.01844 -0.40212,5.1414 -4.60346,11.09167 -8.875,13 -0.8999,5.47927 -8.58472,8.50575 -8.04783,1.22912 -4.46238,-5.58367 -10.85931,1.2018 -11.76517,-3.66612 0.63654,-4.04687 -0.72425,-7.34497 -1.875,-10.875 z"
       id="polygon135"
       inkscape:connector-curvature="0" />
    <path
       style="fill:#3086c0;fill-opacity:1;stroke:none"
       d="m 165.30303,622.6607 c 1.89594,-4.0099 -1.533,-9.70331 -3.75,-5.25 -3.0105,3.00172 -8.31835,2.36231 -3.75,5.625 -1.10671,4.01817 4.23131,-2.64045 5.438,0.063 0.57312,-0.50954 1.37852,-0.30753 2.062,-0.438 z"
       id="polygon137"
       inkscape:connector-curvature="0" />
    <path
       style="fill:#3086c0;fill-opacity:1;stroke:none"
       d="m 161.80303,628.2857 c -3.75278,4.47636 -2.4327,-1.83156 -3,-1.687 -0.66185,-2.23523 4.81295,-3.83872 4.813,-0.875 0.12133,4.51129 -1.58697,-0.77496 -1.813,2.562 z"
       id="polygon139"
       inkscape:connector-curvature="0" />
    <path
       style="fill:#3086c0;fill-opacity:1;stroke:none"
       d="m 160.92803,637.4107 c 2.06381,3.98599 -3.26369,3.34251 0,0 z"
       id="polygon141"
       inkscape:connector-curvature="0" />
    <path
       style="fill:#3086c0;fill-opacity:1;stroke:none"
       d="m 160.99103,631.2237 c 2.94447,1.71214 -4.52917,1.95917 0,0 z"
       id="polygon143"
       inkscape:connector-curvature="0" />
    <path
       style="fill:#3086c0;fill-opacity:1;stroke:none"
       d="m 159.05303,637.7237 c 2.75474,-0.4916 -0.0499,-3.52022 0,0 z"
       id="polygon145"
       inkscape:connector-curvature="0" />
    <path
       style="fill:#3086c0;fill-opacity:1;stroke:none"
       d="m 163.80303,624.2237 c 1.25941,-0.57512 -0.20312,-1.73323 0,0 z"
       id="polygon147"
       inkscape:connector-curvature="0" />
    <path
       style="fill:#3086c0;fill-opacity:1;stroke:none"
       d="m 163.17803,623.9737 c 0.19106,-2.08092 1.02823,0.75256 0,0 z"
       id="polygon149"
       inkscape:connector-curvature="0" />
  </g>
  <path
     style="fill:#3086c0;fill-opacity:1;fill-rule:evenodd;stroke:none;stroke-width:0.10001;stroke-linecap:square;stroke-miterlimit:4;stroke-dasharray:none;stroke-opacity:1"
     d="m 882.72569,659.97962 c 1.30634,-3.46437 5.25998,-6.56011 8.075,-0.475 2.2863,-5.89916 10.08547,-3.60661 11.12758,1.766 -5.19009,8.59711 -0.0148,4.50085 1.9685,7.4965 5.49751,3.00974 0.26975,-9.27997 4.00703,-13.00897 3.47968,-4.67385 0.74292,-10.07302 1.75991,-15.32453 -2.92658,-6.33267 3.54701,-8.58025 -3.55949,-12.37486 -1.11285,-9.54527 -5.74545,-3.91315 -7.14458,-6.79779 -2.16544,-6.60199 -8.46824,-7.29391 -9.99093,-14.71871 -1.83511,-5.4113 -6.65541,-10.16244 -10.93317,-15.14029 -2.9353,-4.6863 -12.12063,-0.83626 -7.24375,5.81875 0.68195,6.90403 8.02422,14.1198 2.01875,20.4839 1.96299,7.18183 -2.52399,15.02196 -9.4411,16.5661 -5.1121,-0.15673 -2.28017,9.77958 -7.55336,12.30187 1.67832,7.02631 -0.23759,12.64281 6.42661,14.29503 0.42294,-7.82084 6.8219,5.24769 10.38563,2.14939 4.10187,-0.83956 4.42581,5.12857 9.26612,5.69121 1.83458,10.76693 5.35573,-0.81888 2.01875,-5.7 -0.39583,-1.00954 -0.79166,-2.01907 -1.1875,-3.0286 z"
     id="S"
     inkscape:connector-curvature="0" />
  <path
     style="fill:#003050;fill-opacity:1;fill-rule:evenodd;stroke:none;stroke-width:0.10001;stroke-linecap:square;stroke-miterlimit:4;stroke-dasharray:none;stroke-opacity:1"
     d="m 934.0572,655.40825 c 4.92501,6.00499 -13.388,5.2624 -0.84595,5.97507 2.47385,4.45289 6.25688,4.67191 1.32095,9.69993 -0.42161,6.27928 -3.9861,6.74049 -8.4911,7.24375 -5.55841,7.71082 -3.12769,0.50016 -6.75676,2.25244 -3.71436,3.67556 -7.0268,2.7893 -9.89027,-1.79273 -2.0522,-3.93158 -0.50017,-10.64284 -1.16547,-16.07486 1.76476,-6.91017 4.64382,-10.29011 3.28721,-16.1589 1.31278,-4.32033 -2.87166,-11.02168 0.86904,-12.8161 2.55922,0.28018 6.08509,-5.28717 7.65985,-4.0375 5.06762,-0.15896 9.43566,6.4401 11.70843,11.18099 1.29281,4.94723 2.64169,9.12448 4.31973,11.63877 0.64042,1.75412 1.43243,4.00096 -2.01566,2.88914 z"
     id="T"
     inkscape:connector-curvature="0" />
  <path
     style="fill:#3086c0;fill-opacity:1;fill-rule:evenodd;stroke:none;stroke-width:0.10001;stroke-linecap:square;stroke-miterlimit:4;stroke-dasharray:none;stroke-opacity:1"
     d="m 957.39912,624.59444 c -4.50771,-0.53491 -9.09142,9.42951 -11.875,2.19687 -4.5665,-4.66972 -9.65255,1.59865 -8.17816,7.25128 -4.97363,-0.77558 -6.6695,5.94038 -2.98434,9.78935 -1.09884,4.35305 5.65546,7.81823 2.22609,10.96101 -3.5365,4.04296 4.82329,6.66402 7.98641,2.39836 10.66516,0.40127 -6.05344,-5.9675 4.79388,-4.73599 5.53462,-2.02601 5.17538,-4.35463 10.34674,-3.51713 2.92265,-1.90967 -2.52021,-9.62062 -0.56406,-13.56719 -2.49882,-3.814 -1.73058,-6.3903 -1.75156,-10.77656 z"
     id="U"
     inkscape:connector-curvature="0" />
  <path
     style="fill:#005b99;fill-opacity:1;fill-rule:evenodd;stroke:none;stroke-width:0.10001;stroke-linecap:square;stroke-miterlimit:4;stroke-dasharray:none;stroke-opacity:1"
     d="m 902.21828,618.89773 c 0.22234,6.1375 -4.85777,-7.9002 -8.86458,-8.40314 -3.12036,-7.75511 -6.14017,-13.24233 -12.17125,-19.38578 -6.74944,-5.86966 6.21487,-12.14647 0.26819,-18.47247 -1.65269,-6.74413 -12.35838,-6.6262 -9.96184,-15.23536 2.6593,-4.51279 -0.57814,-18.93861 6.42815,-16.14367 7.43886,-2.21117 8.31864,10.16533 14.32633,7.51807 -2.26781,4.76253 2.22393,8.96416 4.03694,15.44772 4.65245,0.17874 12.68076,2.49449 16.79308,2.79102 4.01995,-0.62066 6.61215,9.29639 12.14911,2.52174 1.67605,-3.4316 6.29725,9.94166 9.94852,12.66812 -1.54649,9.0766 10.14232,6.0939 10.92869,12.98148 7.25008,4.33788 -1.74936,9.52175 -0.4939,13.13469 1.85252,5.18759 7.82738,6.81526 8.50631,12.12133 2.45311,-0.14009 -8.4041,10.15406 -9.025,4.39375 -3.49111,-4.65658 -11.07428,-1.58961 -8.90625,4.21515 -2.06943,2.88593 -6.83355,8.76422 -9.61875,1.00985 -3.22393,-2.6573 -10.62459,-8.45779 -9.14375,-0.59375 -8.18555,1.79137 -9.89374,-7.32169 -13.5375,-9.4411 0.3006,-1.54233 -0.84776,-1.10736 -1.6625,-1.12765 z m 14.3089,-21.5536 c 3.62511,4.22907 9.87168,-0.59323 6.10156,-2.17307 -2.6855,1.36136 -11.94469,-7.65966 -5.68546,-0.79568 -3.46394,0.91812 -2.38911,-0.0294 -0.4161,2.96875 z"
     id="W"
     inkscape:connector-curvature="0" />
  <path
     style="fill:#003050;fill-opacity:1;fill-rule:evenodd;stroke:none;stroke-width:0.10001;stroke-linecap:square;stroke-miterlimit:4;stroke-dasharray:none;stroke-opacity:1"
     d="m 950.86734,598.71985 c -1.6645,5.37315 -6.78848,7.91836 -1.31556,12.85161 4.43162,1.76726 5.65443,12.62925 10.75571,8.22699 4.16895,-0.96145 7.54202,-4.92597 8.14943,-11.3936 -0.53521,-7.15425 -0.14027,-8.36499 -2.83088,-15.52276 -2.5161,-4.79531 2.11003,-12.24452 -1.56906,-16.89245 0.47065,-3.44469 -0.4723,-15.61189 4.92838,-11.36428 4.9516,-0.14031 -4.9882,-8.07687 -0.46906,-12.46894 4.99353,-7.65735 -3.6435,-8.19123 -8.98021,-7.76422 -6.62283,-4.50851 -15.14661,-0.43885 -21.3516,-5.72352 -9.40575,-4.03863 -4.99971,6.3736 -7.62813,9.39056 -5.59567,3.88525 -3.41093,10.37877 -8.69803,8.73881 -3.15693,-5.95466 -9.87918,8.07225 -4.29453,9.86241 -1.00426,7.34554 10.37264,3.70233 10.40645,1.39226 2.68313,6.93109 9.04405,11.96668 10.31513,19.4262 6.67551,2.96148 8.48259,4.66979 12.58196,11.24093 z"
     id="X"
     inkscape:connector-curvature="0" />
  <path
     style="fill:#005b99;fill-opacity:1;fill-rule:evenodd;stroke:none;stroke-width:0.10001;stroke-linecap:square;stroke-miterlimit:4;stroke-dasharray:none;stroke-opacity:1"
     d="m 948.34373,538.07148 c 7.14666,-0.78298 13.23224,3.99071 19.7714,2.96875 10.02765,1.1087 -0.33668,-5.51587 3.0875,-8.37235 -4.39797,-9.51022 2.21258,0.61354 5.18088,-4.55978 2.39744,-2.73567 7.65736,-9.54737 3.28998,-11.17873 5.22319,-1.63868 4.14144,-3.20432 8.33274,-5.81414 -1.41505,-3.09787 -1.77862,-8.00402 4.5684,-10.40955 5.63193,-1.24581 9.51917,-7.39676 7.02891,-13.92295 -1.67333,-5.34761 -4.98848,-10.95108 -10.64731,-11.41125 -4.29692,-4.52928 -5.84509,-7.98145 -14.17578,-2.23048 -5.79424,0.40683 -14.21205,0.24774 -18.65907,-4.06327 -4.20189,5.43169 0.8541,14.73059 -7.88671,14.00193 -7.928,-1.81873 -7.14144,0.0391 -4.80138,7.10675 2.26273,2.42058 5.95518,8.23268 11.02559,11.66632 7.67331,7.49787 7.12543,8.17306 -0.96806,12.51964 -1.96916,8.40893 -8.37616,4.32006 -14.35653,7.71126 -6.08103,2.74498 -10.87012,2.70788 -16.79681,2.3316 -0.42363,5.22989 0.71949,12.09846 7.34461,12.36993 4.04782,-2.83196 10.6568,-3.47524 15.39554,1.40507 1.0887,-0.0396 2.1774,-0.0791 3.2661,-0.11875 z"
     id="Y"
     inkscape:connector-curvature="0" />
  <path
     style="fill:#3086c0;fill-opacity:1;fill-rule:evenodd;stroke:none;stroke-width:0.10001;stroke-linecap:square;stroke-miterlimit:4;stroke-dasharray:none;stroke-opacity:1"
     d="m 950.01088,515.39829 c -1.38969,7.95863 -10.2306,1.83072 -15.26815,7.19057 -5.18826,3.41818 -13.11389,-1.46261 -14.65685,3.61568 -0.9499,3.3468 2.81285,12.6571 8.43125,9.2036 5.79074,5.48672 -1.71145,8.96301 -3.0875,13.3589 -0.0606,6.75116 -6.1093,1.81986 -8.36289,2.86621 -4.16053,4.5757 -1.1528,14.92591 -9.71862,9.61107 -6.50848,-1.01969 -12.61314,-0.16782 -13.08989,-7.90493 -4.99057,-6.89311 1.32266,-7.45853 -7.18606,-11.29026 -1.66152,-8.01088 -13.7891,-1.94605 -13.54667,-11.01007 -3.80955,-6.8873 -0.46329,-13.37464 -1.45751,-20.46814 6.10463,-5.3956 -5.13773,-12.97762 1.19068,-18.4494 2.55616,-6.07002 2.36459,-11.94274 7.60348,-17.33096 3.25327,-7.84578 12.24069,-11.81922 19.99242,-7.9732 7.86696,5.33914 10.38598,-6.16375 9.17469,-12.29412 0.87039,-6.83885 -12.9404,-6.76372 -4.3844,-14.51774 3.5743,-3.87114 5.76724,-18.91735 11.78062,-11.45499 4.67483,3.71287 6.03931,8.7514 10.21615,12.26993 2.47877,4.19227 4.37098,7.0134 7.7041,11.10645 -0.82879,-7.93647 5.42896,4.78106 6.65,7.00625 4.99382,-0.0241 14.15569,8.52816 9.95579,13.87531 1.22668,6.54516 -2.4303,11.97301 -8.76829,8.50859 -7.77168,-0.67407 -1.92382,6.63563 -0.7125,9.38125 1.88875,5.14411 8.95124,8.93646 12.66072,14.18905 10.34965,9.07317 -3.3979,2.41043 -5.12057,10.51095 z m -33.13125,-15.55625 c -5.49417,-2.50942 -11.56789,-6.33103 -8.93823,0.39525 4.16575,1.35173 6.7601,9.27414 5.2924,13.55975 5.62632,3.17048 -2.44899,-11.43517 3.28958,-11.75765 -2.3461,-0.70799 -3.06313,-3.31732 0.35625,-2.19735 z"
     id="Z"
     inkscape:connector-curvature="0" />
  <path
     style="fill:#003050;fill-opacity:1;fill-rule:evenodd;stroke:none;stroke-width:0.10001;stroke-linecap:square;stroke-miterlimit:4;stroke-dasharray:none;stroke-opacity:1"
     d="m 1009.5839,482.13168 c 2.2831,-6.6327 9.7436,-2.94145 11.1061,-8.78133 4.9423,-3.09424 7.5195,-9.48929 7.9166,-15.98978 1.1056,-4.72638 11.6976,-10.21787 8.0359,-13.56376 -4.5568,-4.51171 -4.0082,-9.90158 -8.6967,-12.57877 0.6168,-1.60178 8.8753,-8.77271 4.58,-12.03822 -4.1848,-4.39843 -12.6914,-1.90729 -18.116,-6.14943 -8.6571,-7.34116 -7.7668,3.9949 -14.1483,7.05489 -3.08244,-5.12951 -7.13945,-6.50526 -11.39998,-10.80625 -6.02674,-0.89603 -9.33246,-6.43084 -15.59699,-7.31983 -8.0961,-3.51076 -11.90118,-14.88197 -20.70122,-16.20064 -5.40395,-3.84926 -9.91292,-9.27064 -16.60444,-10.85813 -0.0181,6.28375 -9.11811,8.94062 -14.725,8.2536 1.45569,7.02631 1.32488,13.69874 -0.50768,20.50828 0.23003,7.0089 -1.83368,12.3083 -3.64857,18.56047 5.43334,3.43458 7.23761,8.49033 11.34015,12.1125 3.80637,4.73065 3.99279,7.92499 8.43125,11.4 1.69655,4.28881 2.10886,-3.01157 5.5391,5.34897 3.60197,4.85558 8.93958,6.3867 13.35741,12.93187 4.06213,5.87541 12.9236,5.16204 19.16164,5.66368 8.14485,-5.2716 10.90089,-3.67183 14.65783,1.92061 5.55494,0.49811 9.19306,5.73835 10.6867,11.17877 5.0967,6.03376 3.7045,-5.27446 9.0138,2.63436 1.6498,-0.58207 -1.4739,-2.44779 0.3184,-3.28186 z"
     id="AC"
     inkscape:connector-curvature="0" />
  <path
     style="fill:#3086c0;fill-opacity:1;fill-rule:evenodd;stroke:none;stroke-width:0.10001;stroke-linecap:square;stroke-miterlimit:4;stroke-dasharray:none;stroke-opacity:1"
     d="m 980.86261,399.25878 c -10.9534,-0.78391 -15.58477,-12.70445 -23.96103,-17.30033 -7.28195,-1.64231 -11.59521,-10.33093 -19.50147,-11.61577 -3.44826,-6.96003 5.73015,-10.96141 6.89774,-17.713 2.58127,-5.69116 10.33452,-8.88309 7.21698,-16.24956 -5.69339,-6.17324 -3.66602,-10.80043 1.88154,-14.59886 1.09655,-6.90902 2.49459,-13.7198 9.59389,-16.75108 2.55781,-7.91336 11.78625,9.52264 12.20127,-1.57901 4.95343,-5.85394 -5.05211,-17.12472 4.42373,-19.61739 5.13605,4.21509 13.2051,1.21179 19.36953,5.51073 10.07351,0.7672 2.27891,-6.58432 5.04061,-9.29588 6.3297,-4.92887 -2.1786,-14.8092 0.9692,-16.24052 9.0674,-3.29819 7.9606,4.52163 14.1055,7.25957 2.8795,3.34116 6.2106,7.3784 11.3379,8.98976 2.0077,5.06779 7.9215,1.64689 11.2636,5.15634 2.9761,0.70063 7.6053,4.34397 7.6798,9.18875 2.9077,0.70558 10.1099,6.45712 6.1369,10.11573 -0.6615,5.58815 3.3485,10.42637 0.3345,14.64317 5.3122,-0.0186 8.2713,4.92133 3.781,9.04163 0.2328,5.82432 4.9708,9.50077 7.6968,14.16394 0.7164,3.67654 -0.2383,8.50985 -0.6716,13.42928 -3.4927,2.48473 -2.2422,10.60442 1.4104,13.45261 4.6782,1.21457 4.3958,9.45916 7.437,13.68129 -6.7743,-0.0106 -9.227,2.265 -14.7849,1.1875 -0.2871,11.24525 -10.9133,-8.32163 -8.3714,1.9 4.3996,7.19243 -4.0699,-3.15382 -5.8187,-1.60265 -1.1526,6.73714 3.75,12.30745 -3.0018,13.10088 -3.0302,1.228 -2.5088,5.51963 -9.5857,7.08662 5.8497,0.28252 3.1216,15.95418 -1.5413,8.27523 -7.9812,-0.61768 -16.0935,-3.95305 -23.6936,-7.32523 -0.5952,6.49508 -8.94995,13.66326 -10.28228,5.22562 -4.741,-2.74587 -8.3382,-5.90456 -13.46771,-8.49172 -1.98851,-0.12025 -3.53993,-1.04384 -4.0964,-3.02765 z m 3.50265,-4.2161 c -1.54477,-4.63748 -9.74887,-5.8183 -8.1339,-13.0625 6.20652,-1.28979 -4.18744,-4.98551 -6.23485,-8.7875 -6.20197,-6.79954 -9.16932,-5.96158 -1.56311,0.50956 4.40814,4.58694 6.12482,6.61877 5.06671,10.89044 -1.76683,8.73029 4.65355,-0.0752 5.69714,9.82805 -0.55708,1.38473 11.06724,4.8391 5.16801,0.62195 z"
     id="BD"
     inkscape:connector-curvature="0" />
</svg>
