<?xml version="1.0" encoding="UTF-8" standalone="no"?>
<!-- Created with Inkscape (http://www.inkscape.org/) -->

<svg
   xmlns:dc="http://purl.org/dc/elements/1.1/"
   xmlns:cc="http://creativecommons.org/ns#"
   xmlns:rdf="http://www.w3.org/1999/02/22-rdf-syntax-ns#"
   xmlns:svg="http://www.w3.org/2000/svg"
   xmlns="http://www.w3.org/2000/svg"
   xmlns:sodipodi="http://sodipodi.sourceforge.net/DTD/sodipodi-0.dtd"
   xmlns:inkscape="http://www.inkscape.org/namespaces/inkscape"
   width="400"
   height="680"
   id="svg2"
   version="1.1"
   inkscape:version="0.91 r13725"
   sodipodi:docname="colors-hu.svg">
  <sodipodi:namedview
     id="base"
     pagecolor="#ffffff"
     bordercolor="#666666"
     borderopacity="1.0"
     inkscape:pageopacity="0.0"
     inkscape:pageshadow="2"
     inkscape:zoom="0.5"
     inkscape:cx="163.03355"
     inkscape:cy="168.88182"
     inkscape:document-units="px"
     inkscape:current-layer="layer3"
     showgrid="false"
     inkscape:window-width="1600"
     inkscape:window-height="844"
     inkscape:window-x="0"
     inkscape:window-y="30"
     inkscape:window-maximized="1"
     showguides="true"
     inkscape:guide-bbox="true"
     fit-margin-top="0"
     fit-margin-left="0"
     fit-margin-right="0"
     fit-margin-bottom="0" />
  <defs
     id="defs4">
    <inkscape:perspective
       sodipodi:type="inkscape:persp3d"
       inkscape:vp_x="0 : 526.18109 : 1"
       inkscape:vp_y="0 : 1000 : 0"
       inkscape:vp_z="744.09448 : 526.18109 : 1"
       inkscape:persp3d-origin="372.04724 : 350.78739 : 1"
       id="perspective2447" />
    <inkscape:perspective
       id="perspective2447-3"
       inkscape:persp3d-origin="372.04724 : 350.78739 : 1"
       inkscape:vp_z="744.09448 : 526.18109 : 1"
       inkscape:vp_y="0 : 1000 : 0"
       inkscape:vp_x="0 : 526.18109 : 1"
       sodipodi:type="inkscape:persp3d" />
  </defs>
  <metadata
     id="metadata7">
    <rdf:RDF>
      <cc:Work
         rdf:about="">
        <dc:format>image/svg+xml</dc:format>
        <dc:type
           rdf:resource="http://purl.org/dc/dcmitype/StillImage" />
        <dc:title></dc:title>
      </cc:Work>
    </rdf:RDF>
  </metadata>
  <g
     inkscape:groupmode="layer"
     id="layer3"
     inkscape:label="grey 1">
    <rect
       transform="translate(920,-4)"
       style="opacity:1;fill:#fffff3;fill-opacity:1;stroke:none;stroke-width:30;stroke-linecap:round;stroke-miterlimit:4;stroke-dasharray:none;stroke-dashoffset:0;stroke-opacity:1"
       id="rect18005"
       width="120"
       height="120"
       x="-640"
       y="564" />
  </g>
  <g
     inkscape:groupmode="layer"
     id="layer4"
     inkscape:label="grey 2">
    <rect
       transform="translate(920,-4)"
       y="564"
       x="-780"
       height="120"
       width="120"
       id="rect18003"
       style="opacity:1;fill:#e6e1d8;fill-opacity:1;stroke:none;stroke-width:30;stroke-linecap:round;stroke-miterlimit:4;stroke-dasharray:none;stroke-dashoffset:0;stroke-opacity:1" />
  </g>
  <g
     inkscape:groupmode="layer"
     id="layer5"
     inkscape:label="grey 3">
    <rect
       transform="translate(920,-4)"
       style="opacity:1;fill:#6a6963;fill-opacity:1;stroke:none;stroke-width:30;stroke-linecap:round;stroke-miterlimit:4;stroke-dasharray:none;stroke-dashoffset:0;stroke-opacity:1"
       id="rect18007"
       width="120"
       height="120"
       x="-920"
       y="564" />
  </g>
  <g
     inkscape:groupmode="layer"
     id="layer6"
     inkscape:label="yellow 1">
    <rect
       transform="translate(920,-4)"
       y="424"
       x="-640"
       height="120"
       width="120"
       id="rect17887"
       style="opacity:1;fill:#ffd09f;fill-opacity:1;stroke:none;stroke-width:30;stroke-linecap:round;stroke-miterlimit:4;stroke-dasharray:none;stroke-dashoffset:0;stroke-opacity:1" />
  </g>
  <g
     inkscape:groupmode="layer"
     id="layer7"
     inkscape:label="yellow 2">
    <rect
       transform="translate(920,-4)"
       style="opacity:1;fill:#ffbb74;fill-opacity:1;stroke:none;stroke-width:30;stroke-linecap:round;stroke-miterlimit:4;stroke-dasharray:none;stroke-dashoffset:0;stroke-opacity:1"
       id="rect17879"
       width="120"
       height="120"
       x="-780"
       y="424" />
  </g>
  <g
     inkscape:label="yellow 3"
     id="g18972"
     inkscape:groupmode="layer">
    <rect
       transform="translate(920,-4)"
       y="424"
       x="-920"
       height="120"
       width="120"
       id="rect17919"
       style="opacity:1;fill:#a65d10;fill-opacity:1;stroke:none;stroke-width:30;stroke-linecap:round;stroke-miterlimit:4;stroke-dasharray:none;stroke-dashoffset:0;stroke-opacity:1" />
  </g>
  <g
     inkscape:groupmode="layer"
     id="layer11"
     inkscape:label="red 1">
    <rect
       transform="translate(920,-4)"
       style="opacity:1;fill:#ffae9f;fill-opacity:1;stroke:none;stroke-width:30;stroke-linecap:round;stroke-miterlimit:4;stroke-dasharray:none;stroke-dashoffset:0;stroke-opacity:1"
       id="rect17885"
       width="120"
       height="120"
       x="-640"
       y="284" />
  </g>
  <g
     inkscape:groupmode="layer"
     id="layer12"
     inkscape:label="red 2">
    <rect
       transform="translate(920,-4)"
       y="284"
       x="-780"
       height="120"
       width="120"
       id="rect17877"
       style="opacity:1;fill:#e9644b;fill-opacity:1;stroke:none;stroke-width:30;stroke-linecap:round;stroke-miterlimit:4;stroke-dasharray:none;stroke-dashoffset:0;stroke-opacity:1" />
  </g>
  <g
     inkscape:groupmode="layer"
     id="layer13"
     inkscape:label="red 3">
    <rect
       transform="translate(920,-4)"
       style="opacity:1;fill:#a62710;fill-opacity:1;stroke:none;stroke-width:30;stroke-linecap:round;stroke-miterlimit:4;stroke-dasharray:none;stroke-dashoffset:0;stroke-opacity:1"
       id="rect17917"
       width="120"
       height="120"
       x="-920"
       y="284" />
  </g>
  <g
     inkscape:groupmode="layer"
     id="layer8"
     inkscape:label="green 1">
    <rect
       transform="translate(920,-4)"
       style="opacity:1;fill:#87d9a3;fill-opacity:1;stroke:none;stroke-width:30;stroke-linecap:round;stroke-miterlimit:4;stroke-dasharray:none;stroke-dashoffset:0;stroke-opacity:1"
       id="rect17883"
       width="120"
       height="120"
       x="-640"
       y="144" />
  </g>
  <g
     inkscape:groupmode="layer"
     id="layer9"
     inkscape:label="green 2">
    <rect
       transform="translate(920,-4)"
       y="144"
       x="-780"
       height="120"
       width="120"
       id="rect17875"
       style="opacity:1;fill:#37ab5e;fill-opacity:1;stroke:none;stroke-width:30;stroke-linecap:round;stroke-miterlimit:4;stroke-dasharray:none;stroke-dashoffset:0;stroke-opacity:1" />
  </g>
  <g
     inkscape:groupmode="layer"
     id="layer10"
     inkscape:label="green 3">
    <rect
       transform="translate(920,-4)"
       style="opacity:1;fill:#0c7a31;fill-opacity:1;stroke:none;stroke-width:30;stroke-linecap:round;stroke-miterlimit:4;stroke-dasharray:none;stroke-dashoffset:0;stroke-opacity:1"
       id="rect17915"
       width="120"
       height="120"
       x="-920"
       y="144" />
  </g>
  <g
     inkscape:groupmode="layer"
     id="layer14"
     inkscape:label="blue 1">
    <rect
       transform="translate(920,-4)"
       y="4"
       x="-640"
       height="120"
       width="120"
       id="rect17881"
       style="opacity:1;fill:#80b8ca;fill-opacity:1;stroke:none;stroke-width:30;stroke-linecap:round;stroke-miterlimit:4;stroke-dasharray:none;stroke-dashoffset:0;stroke-opacity:1" />
  </g>
  <g
     inkscape:groupmode="layer"
     id="layer15"
     inkscape:label="blue 2">
    <rect
       transform="translate(920,-4)"
       style="opacity:1;fill:#337a92;fill-opacity:1;stroke:none;stroke-width:30;stroke-linecap:round;stroke-miterlimit:4;stroke-dasharray:none;stroke-dashoffset:0;stroke-opacity:1"
       id="rect17873"
       width="120"
       height="120"
       x="-780"
       y="4.0000005" />
  </g>
  <g
     inkscape:groupmode="layer"
     id="layer16"
     inkscape:label="blue 3">
    <rect
       transform="translate(920,-4)"
       y="4.0000005"
       x="-920"
       height="120"
       width="120"
       id="rect17913"
       style="opacity:1;fill:#0d5168;fill-opacity:1;stroke:none;stroke-width:30;stroke-linecap:round;stroke-miterlimit:4;stroke-dasharray:none;stroke-dashoffset:0;stroke-opacity:1" />
  </g>
</svg>
