<?xml version="1.0" encoding="UTF-8" standalone="no"?>
<!-- Created with Inkscape (http://www.inkscape.org/) -->

<svg
   xmlns:dc="http://purl.org/dc/elements/1.1/"
   xmlns:cc="http://creativecommons.org/ns#"
   xmlns:rdf="http://www.w3.org/1999/02/22-rdf-syntax-ns#"
   xmlns:svg="http://www.w3.org/2000/svg"
   xmlns="http://www.w3.org/2000/svg"
   xmlns:sodipodi="http://sodipodi.sourceforge.net/DTD/sodipodi-0.dtd"
   xmlns:inkscape="http://www.inkscape.org/namespaces/inkscape"
   id="svg2"
   version="1.1"
   inkscape:version="0.91 r13725"
   xml:space="preserve"
   width="1920"
   height="1080"
   viewBox="0 0 1920 1080"
   sodipodi:docname="kimittud_logo.svg"><metadata
     id="metadata8"><rdf:RDF><cc:Work
         rdf:about=""><dc:format>image/svg+xml</dc:format><dc:type
           rdf:resource="http://purl.org/dc/dcmitype/StillImage" /><dc:title /></cc:Work></rdf:RDF></metadata><defs
     id="defs6"><clipPath
       clipPathUnits="userSpaceOnUse"
       id="clipPath20"><path
         d="m 0,488.346 1204.346,0 L 1204.346,0 0,0 0,488.346 Z"
         id="path22"
         inkscape:connector-curvature="0" /></clipPath></defs><sodipodi:namedview
     pagecolor="#ffffff"
     bordercolor="#666666"
     borderopacity="1"
     objecttolerance="10"
     gridtolerance="10"
     guidetolerance="10"
     inkscape:pageopacity="0"
     inkscape:pageshadow="2"
     inkscape:window-width="1280"
     inkscape:window-height="996"
     id="namedview4"
     showgrid="true"
     inkscape:snap-grids="false"
     inkscape:object-paths="true"
     inkscape:zoom="0.35355339"
     inkscape:cx="1128.8094"
     inkscape:cy="788.54079"
     inkscape:window-x="1600"
     inkscape:window-y="0"
     inkscape:window-maximized="1"
     inkscape:current-layer="g10"><inkscape:grid
       type="xygrid"
       id="grid5982" /></sodipodi:namedview><g
     id="g10"
     inkscape:groupmode="layer"
     inkscape:label="kimittud_logo"
     transform="matrix(1.25,0,0,-1.25,0,1080)"
     style="display:inline;opacity:1"><g
       id="g12"
       transform="matrix(0.59496005,0,0,0.59496005,769.28268,480.62357)"><path
         d="m 0,0 -1.078,0 4.849,4.849 0,-1.078 0,-1.078 L 1.078,0 0,0 Z m -27.656,35.02 2.155,1.975 -2.155,0 0,-1.975 z m -31.249,-106.676 0,-1.077 0,-1.078 5.208,5.208 -1.077,0 -1.078,0 -3.053,-3.053 z m -6.285,103.443 5.387,5.208 -4.829,0 -0.558,-0.539 0,-4.669 z M -75.332,0 l -1.245,0 5.337,5.208 0,-1.078 0,-1.077 L -74.265,0 -75.332,0 Z m -3.911,43.819 1.066,0 -6.05,-5.926 0,1.077 0,1.078 3.915,3.771 1.069,0 z m 1.122,-4.49 0,10.775 87.998,0 0,-43.999 -9.518,0 L -5.747,0 l -1.077,0 -1.078,0 6.106,6.105 -1.257,0 0,3.233 -6.106,-6.106 0,1.257 0,1.077 6.106,6.107 0,4.489 -6.106,-5.926 0,1.077 0,1.079 6.106,6.105 0,4.669 -6.106,-6.105 0,1.077 0,1.078 6.106,6.105 0,4.67 -6.106,-6.106 0,1.077 0,1.078 6.106,6.106 0,4.669 -6.106,-6.106 0,0.18 -0.898,0 -1.077,0 6.106,6.106 -4.67,0 -6.106,-6.106 -1.077,0 -1.257,0 6.285,6.106 -4.669,0 -6.106,-6.106 -1.257,0 -1.077,0 6.285,6.106 -4.669,0 -4.31,-4.131 0,-95.181 12.391,0 0,-13.11 -6.106,0 0,-0.898 0,-1.077 -4.31,-4.131 -1.077,0 -1.078,0 6.286,6.106 -4.67,0 -6.285,-6.106 -1.078,0 -1.077,0 6.285,6.106 -4.669,0 -6.286,-6.106 -1.077,0 -1.078,0 6.106,6.106 -4.489,0 -6.286,-6.106 -1.077,0 -1.078,0 6.106,6.106 -4.67,0 -6.106,-6.106 -1.077,0 -1.077,0 6.106,6.106 -3.772,0 0,0.898 -6.106,-6.107 0,1.078 0,1.078 6.106,6.106 0,10.057 10.057,0 2.155,2.155 0,4.669 -6.106,-6.106 0,1.078 0,1.256 6.106,5.927 0,4.669 -6.106,-6.105 0,1.256 0,1.078 6.106,6.106 0,4.489 -6.106,-5.926 0,1.078 0,1.078 6.106,6.105 0,4.669 -6.106,-6.105 0,1.077 0,1.078 6.106,6.105 0,4.67 -6.106,-6.106 0,1.077 0,1.078 6.106,6.106 0,4.67 -6.106,-6.107 0,1.078 0,1.077 6.106,6.106 0,4.67 -6.106,-6.107 0,1.078 0,1.078 6.106,6.106 0,4.669 -6.106,-6.106 0,1.078 0,1.077 6.106,6.106 0,4.669 -6.106,-6.106 0,1.078 0,1.257 6.106,5.927 0,4.668 -6.106,-6.105 0,1.257 0,1.077 6.106,6.106 0,4.49 -6.106,-5.926 0,1.077 0,1.077 6.106,6.107 0,4.669 -6.106,-6.106 0,1.077 0,1.077 6.106,6.107 0,4.669 -6.106,-6.106 0,1.077 0,1.079 6.106,6.105 0,4.669 -2.694,-2.693 -3.412,-3.412 0,1.077 0,1.078 1.257,1.257 4.849,4.848 0,1.258 -3.232,0 -2.874,-2.694 -3.412,-3.412 -1.078,0 -1.077,0 5.567,5.567 0.539,0.539 -4.669,0 -6.106,-6.106 -1.078,0 -1.077,0 6.105,6.106 -4.739,0 -6.196,-6.106 -1.094,0 -0.182,0 0,-24.784 -9.785,0 -6.05,-6.105 -1.246,0 -1.066,0 6.294,6.105 -1.078,0 -0.056,3.592 -6.05,-6.105 0,1.257 0,1.077 6.106,6.106 -0.056,4.489 -6.05,-5.925 0,1.077 0,1.077 6.106,6.106 -0.056,4.669 -6.05,-6.105 0,1.077 0,1.077 6.106,6.107 -0.056,4.669 -6.05,-6.106 0,1.077 0,1.078 6.106,6.106 0,4.669 -6.106,-6.106 0,1.078 0,1.078 6.106,6.105 z"
         style="fill:#55514b;fill-opacity:1;fill-rule:nonzero;stroke:none"
         id="path14"
         inkscape:connector-curvature="0" /></g><g
       clip-path="url(#clipPath20)"
       id="g18"
       transform="matrix(0.59496005,0,0,0.59496005,411.6632,374.92463)"><g
         transform="translate(726.2534,208.5459)"
         id="g24"><path
           inkscape:connector-curvature="0"
           id="path26"
           style="fill:#55514b;fill-opacity:1;fill-rule:nonzero;stroke:none"
           d="m 0,0 4.311,4.131 0,-1.078 0,-1.077 L 2.335,0 1.257,0 0,0 Z m -0.539,6.106 -1.437,0 0.18,-1.257 1.257,1.257 z m -32.146,6.825 -0.539,-0.539 0,0.539 0.539,0 z M -75.247,0 l 4.669,4.489 0,-1.077 0,-1.077 L -73.092,0 -74.17,0 -75.247,0 Z m -0.539,6.106 -1.077,0 0,-0.898 1.077,0.898 z m -32.146,6.825 -0.18,-0.18 0,0.18 0.18,0 z m 80.814,6.285 37.534,0 0,-13.11 -8.929,0 -3.463,-3.413 0,-65.01 c 0,-0.121 -0.031,-0.808 -0.089,-2.065 -0.062,-1.258 -0.27,-2.874 -0.626,-4.849 -0.357,-1.975 -0.892,-4.251 -1.605,-6.825 -0.716,-2.575 -1.728,-5.179 -3.036,-7.811 -1.549,-3.115 -3.604,-6.196 -6.162,-9.249 -2.56,-3.053 -5.924,-5.719 -10.091,-7.991 l -6.249,-6.287 -2.144,-1.077 c -0.239,-0.241 -0.536,-0.39 -0.892,-0.449 -0.359,-0.061 -0.716,-0.21 -1.072,-0.449 l 6.286,6.286 c -2.277,-0.839 -4.49,-1.499 -6.646,-1.976 l -6.285,-6.286 c -0.241,0 -0.449,-0.03 -0.629,-0.09 -0.179,-0.061 -0.389,-0.089 -0.628,-0.089 -0.359,-0.121 -0.839,-0.179 -1.436,-0.179 l 6.285,6.105 c -0.839,-0.12 -1.678,-0.21 -2.515,-0.269 -0.839,-0.062 -1.736,-0.152 -2.693,-0.27 l -6.285,-6.105 c -0.242,-0.121 -0.601,-0.18 -1.078,-0.18 l -1.078,0 6.106,6.285 c -0.241,0 -0.448,-0.03 -0.628,-0.09 -0.18,-0.061 -0.391,-0.088 -0.629,-0.088 -0.601,0 -1.14,0.027 -1.616,0.088 -0.48,0.06 -1.019,0.09 -1.616,0.09 l -6.286,-6.105 -1.078,0 -0.897,0 6.105,6.285 c -0.717,0.118 -1.408,0.208 -2.065,0.269 -0.659,0.06 -1.347,0.149 -2.065,0.27 l -6.106,-6.285 c -0.241,0.117 -0.539,0.179 -0.898,0.179 -0.242,0.118 -0.538,0.179 -0.898,0.179 l 6.106,6.286 c -1.078,0.118 -2.276,0.418 -3.591,0.898 l -6.286,-6.106 c -0.12,0 -0.242,0.029 -0.36,0.09 -0.12,0.059 -0.241,0.09 -0.359,0.09 -0.241,0.117 -0.421,0.18 -0.538,0.18 -0.121,0 -0.241,0.058 -0.36,0.178 l 6.107,6.107 c -0.601,0.238 -1.14,0.449 -1.617,0.629 -0.48,0.18 -1.019,0.387 -1.616,0.628 l -6.106,-6.106 c -0.241,0.117 -0.391,0.18 -0.449,0.18 -0.062,0 -0.21,0.059 -0.449,0.18 -0.242,0.238 -0.48,0.358 -0.718,0.358 l 6.285,6.107 c -0.601,0.238 -1.139,0.539 -1.616,0.897 -0.48,0.359 -0.96,0.657 -1.437,0.898 l -6.106,-6.106 c -0.241,0 -0.48,0.118 -0.718,0.359 -0.241,0.239 -0.48,0.36 -0.719,0.36 l 6.286,6.285 c -0.6,0.239 -1.078,0.539 -1.437,0.898 -0.358,0.36 -0.779,0.718 -1.257,1.077 l -6.105,-6.105 -0.719,0.358 -0.539,0.539 6.106,6.287 c -0.359,0.358 -0.749,0.717 -1.167,1.077 -0.421,0.359 -0.808,0.718 -1.168,1.077 l -6.105,-6.106 -0.539,0.539 c -0.121,0.118 -0.21,0.239 -0.27,0.359 -0.061,0.118 -0.151,0.239 -0.269,0.359 l 6.286,6.107 c -0.481,0.476 -0.87,0.897 -1.168,1.257 -0.3,0.359 -0.628,0.777 -0.987,1.256 l -6.107,-6.105 c -0.12,0.117 -0.21,0.238 -0.268,0.358 -0.063,0.118 -0.153,0.24 -0.27,0.36 0,0.118 -0.121,0.298 -0.359,0.539 l 6.105,6.106 c -0.241,0.598 -0.538,1.106 -0.897,1.527 -0.36,0.418 -0.66,0.925 -0.899,1.526 l -6.105,-6.286 -0.36,0.719 -0.359,0.718 6.106,6.285 -0.179,0.36 c -0.241,0.476 -0.449,0.926 -0.629,1.346 -0.18,0.418 -0.39,0.868 -0.628,1.347 l -6.107,-6.105 -0.359,0.717 c -0.12,0.24 -0.179,0.388 -0.179,0.45 0,0.058 -0.062,0.208 -0.179,0.449 l 6.105,6.105 c -0.241,0.598 -0.421,1.168 -0.539,1.706 -0.12,0.539 -0.3,1.106 -0.538,1.706 l -6.106,-6.105 c -0.121,0.238 -0.18,0.387 -0.18,0.449 0,0.059 -0.062,0.207 -0.18,0.448 0,0.24 -0.03,0.388 -0.09,0.45 -0.061,0.058 -0.089,0.208 -0.089,0.449 l 6.106,6.105 c -0.241,0.598 -0.421,1.227 -0.539,1.886 -0.12,0.657 -0.241,1.285 -0.359,1.886 l -6.106,-6.106 c 0,0.359 -0.061,0.657 -0.18,0.898 0,0.477 -0.061,0.777 -0.179,0.898 l 6.106,6.106 c -0.121,0.836 -0.211,1.586 -0.269,2.245 -0.062,0.656 -0.09,1.285 -0.09,1.886 l -6.107,-6.107 c -0.12,0.36 -0.178,0.719 -0.178,1.078 l 0,1.077 6.105,6.107 0,0.179 0,4.49 -6.105,-6.107 0,1.079 0,1.077 6.105,6.106 0,4.669 -6.105,-6.105 0,1.077 0,1.077 6.105,6.106 0,4.669 -6.105,-6.105 0,1.077 0,1.077 6.105,6.107 0,4.669 -6.105,-6.106 0,1.077 0,1.257 6.105,5.927 0,4.669 -6.105,-6.106 0,1.257 0,1.078 6.105,6.106 0,4.49 -6.105,-6.107 0,1.257 0,1.078 6.105,6.106 0,4.49 -6.105,-5.927 0,1.078 0,1.078 6.105,6.105 0,4.67 -6.105,-6.106 0,1.077 0,1.078 6.105,6.105 0,4.67 -6.105,-6.106 0,1.078 0,1.077 6.105,6.107 0,4.668 -3.771,-3.771 -2.334,-2.335 0,1.078 0,1.077 0.178,0.18 5.927,5.927 0,0.179 -4.489,0 -1.616,-1.617 -4.491,-4.489 -1.077,0 -1.077,0 6.106,6.106 -4.67,0 -6.106,-6.106 -0.898,0 0,0.18 0,1.077 6.106,6.106 0,4.669 -6.106,-6.105 0,1.077 0,1.257 4.849,4.67 1.077,0 0.18,0 0,6.285 37.534,0 0,-13.11 -9.159,0 -3.232,-3.053 0,-65.37 c 0,-1.678 0.179,-3.412 0.538,-5.208 0.239,-1.557 0.657,-3.263 1.258,-5.119 0.597,-1.857 1.436,-3.801 2.513,-5.835 5.147,-9.819 14.068,-14.727 26.759,-14.727 12.69,0 21.609,4.908 26.759,14.727 0.359,0.717 0.687,1.436 0.987,2.154 0.298,0.719 0.568,1.375 0.809,1.975 l -6.107,-5.925 c 0.239,0.359 0.478,0.897 0.719,1.616 0,0.476 0.118,0.957 0.359,1.436 l 6.106,6.106 c 0.477,2.273 0.836,4.189 1.078,5.747 l -6.106,-6.106 c 0,0.239 0.028,0.449 0.089,0.628 0.059,0.18 0.09,0.388 0.09,0.629 l 0,1.257 6.106,6.107 0,0.538 0,4.13 -6.106,-6.105 0,1.077 0,1.077 6.106,6.107 0,4.669 -6.106,-6.106 0,1.077 0,1.078 6.106,6.106 0,4.669 -6.106,-6.106 0,1.078 0,1.078 6.106,6.105 0,4.669 -6.106,-6.105 0,1.077 0,1.258 6.106,5.925 0,4.67 -6.106,-6.106 0,1.257 0,1.078 6.106,6.105 0,4.491 -6.106,-5.927 0,1.077 0,1.078 6.106,6.106 0,4.669 -6.106,-6.106 0,1.078 0,1.077 6.106,6.106 0,4.67 -6.106,-6.107 0,1.078 0,1.077 6.106,6.107 0,4.669 -6.106,-6.107 0,1.079 0,1.077 6.106,6.106 0,4.669 -3.412,-3.412 -2.694,-2.693 0,1.077 0,1.077 0.539,0.539 5.567,5.567 0,0.539 -3.95,0 -2.156,-1.975 -4.131,-4.131 -1.077,0 -1.077,0 6.285,6.106 -4.669,0 -6.286,-6.106 -1.077,0 -0.18,0 0,0.898 6.106,6.106 0,4.669 -6.106,-6.106 0,1.078 0,1.257 5.208,5.029 0.898,0 0,6.285 z" /></g><g
         transform="translate(775.2798,214.6523)"
         id="g28"><path
           inkscape:connector-curvature="0"
           id="path30"
           style="fill:#55514b;fill-opacity:1;fill-rule:nonzero;stroke:none"
           d="M 0,0 0.18,-1.796 1.976,0 0,0 Z m 62.138,-44.718 -6.107,-6.106 0,1.078 0,1.077 6.107,6.106 0,4.669 -6.107,-6.105 0,1.077 0,1.077 6.107,6.107 0,4.669 -6.107,-6.106 0,0.18 0,0.179 c 0,0.118 -0.03,0.208 -0.09,0.269 -0.061,0.06 -0.089,0.208 -0.089,0.449 l 0,1.077 6.106,6.107 c -0.121,0.719 -0.301,2.034 -0.539,3.951 l -6.106,-6.106 c -0.121,0.238 -0.179,0.539 -0.179,0.898 -0.121,0.238 -0.18,0.418 -0.18,0.538 0,0.118 -0.061,0.239 -0.18,0.36 l 6.106,6.106 c -0.12,0.598 -0.241,1.195 -0.359,1.796 -0.121,0.598 -0.3,1.195 -0.539,1.796 l -6.106,-6.107 c -0.12,0.239 -0.179,0.388 -0.179,0.45 0,0.058 -0.062,0.208 -0.179,0.449 -0.122,0.117 -0.18,0.238 -0.18,0.358 0,0.118 -0.062,0.239 -0.18,0.36 l 6.106,6.106 c -0.242,0.598 -0.48,1.136 -0.718,1.616 -0.241,0.477 -0.481,1.016 -0.719,1.616 l -6.105,-6.106 c 0,0.239 -0.121,0.478 -0.36,0.719 -0.121,0.118 -0.179,0.238 -0.179,0.359 0,0.117 -0.062,0.238 -0.18,0.359 l 6.106,6.106 c -0.242,0.598 -0.539,1.105 -0.898,1.526 -0.359,0.418 -0.659,0.868 -0.898,1.347 l -6.286,-6.285 c 0,0.238 -0.12,0.477 -0.359,0.719 l -0.538,0.538 6.105,6.106 c -0.717,0.836 -1.498,1.616 -2.334,2.335 l -6.106,-6.106 -0.539,0.539 -0.538,0.538 6.105,6.106 c -0.479,0.36 -0.928,0.688 -1.346,0.988 -0.421,0.297 -0.929,0.628 -1.527,0.988 l -6.106,-6.286 c -0.241,0.239 -0.48,0.418 -0.718,0.539 l -0.719,0.359 6.107,6.106 c -0.481,0.239 -0.989,0.477 -1.527,0.718 -0.539,0.239 -1.108,0.477 -1.707,0.719 l -6.105,-6.286 c -0.121,0.118 -0.241,0.18 -0.36,0.18 -0.12,0 -0.299,0.058 -0.539,0.179 -0.12,0 -0.241,0.029 -0.358,0.09 -0.121,0.059 -0.241,0.09 -0.359,0.09 l 6.105,6.285 c -0.601,0.238 -1.228,0.388 -1.886,0.449 -0.659,0.059 -1.287,0.149 -1.884,0.27 l -6.107,-6.107 c -0.241,0 -0.421,0.029 -0.539,0.09 -0.12,0.06 -0.3,0.09 -0.538,0.09 -0.359,0 -0.66,0.06 -0.898,0.18 l 6.106,6.106 C 35.199,-0.063 34.48,0 33.763,0 l -2.156,0 -6.285,-6.106 -0.359,0 -0.719,0 -1.077,0 6.285,6.106 -4.669,0 -6.285,-6.106 -1.078,0 -1.077,0 6.285,6.106 -4.669,0 -6.286,-6.106 -1.077,0 -1.077,0 L 15.624,0 12.392,0 11.135,0 6.286,-4.67 4.849,-6.106 l -1.078,0 -1.077,0 3.592,3.591 L 8.8,0 4.032,0 0,-3.951 l 0,-95.362 12.249,0 18.732,0 c 1.92,0.119 3.663,0.298 5.223,0.54 1.56,0.238 3.303,0.656 5.225,1.256 1.919,0.598 3.842,1.375 5.763,2.335 6.123,3.112 10.388,7.84 12.79,14.188 l -6.106,-6.107 c 0.239,0.36 0.478,0.899 0.719,1.617 0,0.359 0.118,0.898 0.359,1.616 l 5.926,5.927 c 0.598,1.795 0.957,3.65 1.078,5.567 l -6.106,-5.927 0,1.077 c 0,0.478 0.059,0.899 0.179,1.258 l 5.927,5.926 c 0.118,0.359 0.18,0.898 0.18,1.616 l 0,3.054 -6.107,-5.927 0,1.078 0,1.077 6.107,6.106 0,4.67 -6.107,-6.107 0,1.078 0,1.078 6.107,6.106 0,4.669 -6.107,-6.106 0,1.078 0,1.077 6.107,6.106 0,4.669 z m -75.247,-54.595 0.178,0 0,0.18 -0.178,-0.18 z m -12.931,-6.285 -5.208,-5.028 0,1.077 0,1.077 2.873,2.874 1.258,0 1.077,0 z m -3.951,112.422 -1.257,-1.078 0,1.078 0.18,0 1.077,0 z m 61.059,6.285 c 5.627,0 10.566,-0.69 14.817,-2.065 4.248,-1.378 7.929,-3.143 11.045,-5.298 3.111,-2.155 5.684,-4.551 7.721,-7.184 2.036,-2.634 3.71,-5.208 5.029,-7.721 1.316,-2.756 2.335,-5.388 3.053,-7.903 0.718,-2.513 1.257,-4.79 1.617,-6.824 0.359,-2.037 0.566,-3.681 0.628,-4.938 0.059,-1.257 0.089,-1.947 0.089,-2.066 l 0,-37.534 c 0,-4.91 -0.51,-9.248 -1.526,-13.019 -1.019,-3.772 -2.365,-7.125 -4.04,-10.057 -1.679,-2.936 -3.592,-5.478 -5.747,-7.633 -2.155,-2.155 -4.372,-3.951 -6.645,-5.388 l -6.465,-6.285 c -0.48,-0.359 -0.929,-0.66 -1.347,-0.898 -0.421,-0.241 -0.87,-0.48 -1.347,-0.718 -0.241,-0.242 -0.449,-0.391 -0.629,-0.449 -0.179,-0.062 -0.389,-0.151 -0.628,-0.27 -0.242,-0.121 -0.39,-0.211 -0.449,-0.269 -0.061,-0.062 -0.211,-0.152 -0.449,-0.27 l 6.285,6.466 c -2.275,-1.078 -4.789,-2.038 -7.542,-2.874 l -6.286,-6.285 c -0.48,-0.241 -0.959,-0.359 -1.437,-0.359 -0.717,-0.242 -1.198,-0.36 -1.436,-0.36 l 6.285,6.107 c -1.077,-0.242 -2.096,-0.421 -3.053,-0.539 -0.96,-0.122 -1.857,-0.242 -2.693,-0.36 l -6.286,-6.285 c -0.241,0 -0.449,-0.031 -0.628,-0.09 -0.18,-0.061 -0.391,-0.09 -0.629,-0.09 l -1.077,0 6.105,6.106 c -0.6,-0.12 -1.108,-0.179 -1.526,-0.179 l -0.809,0 -2.334,0 -6.286,-6.106 -1.077,0 -1.077,0 6.285,6.106 -4.669,0 -6.286,-6.106 -1.077,0 -1.078,0 6.106,6.106 -4.489,0 -6.286,-6.106 -1.077,0 -1.078,0 6.106,6.106 -0.359,0 -4.377,0 -1.825,-1.796 -4.377,-4.31 -1.094,0 -1.073,0 6.101,6.106 -4.67,0 -6.032,-6.106 -1.066,0 -1.064,0 6.008,6.106 -4.591,0 -6.005,-6.106 -1.078,0 -1.257,0 6.216,6.106 -4.6,0 -6.105,-6.106 -0.539,0 -0.719,0 -1.077,0 1.796,1.796 4.489,4.31 -4.669,0 -6.285,-6.106 -1.078,0 -1.077,0 6.285,6.106 -3.772,0 0,1.077 -0.538,-0.718 -5.567,-5.388 0,1.078 0,1.077 3.232,3.233 2.873,2.874 0,9.876 9.878,0 2.334,2.335 0,4.669 -6.105,-6.105 0,1.077 0,1.077 6.105,6.107 0,4.669 -6.105,-6.106 0,1.077 0,1.257 6.105,5.927 0,4.669 -6.105,-6.106 0,1.078 0,1.256 6.105,6.107 0,4.489 -6.105,-6.105 0,1.256 0,1.079 6.105,6.105 0,4.49 -6.105,-5.927 0,1.078 0,1.078 6.105,6.105 0,4.67 -6.105,-6.106 0,1.077 0,1.078 6.105,6.105 0,4.67 -6.105,-6.106 0,1.078 0,1.077 6.105,6.106 0,4.67 -6.105,-6.107 0,1.078 0,1.077 6.105,6.107 0,4.669 -6.105,-6.107 0,1.078 0,1.078 6.105,6.106 0,4.669 -6.105,-6.106 0,1.078 0,1.077 6.105,6.106 0,4.669 -6.105,-6.105 0,1.077 0,1.257 6.105,5.927 0,4.668 -6.105,-6.105 0,1.257 0,1.077 6.105,6.106 0,4.49 -6.105,-5.926 0,1.077 0,1.078 6.105,6.106 0,4.669 -2.693,-2.873 -3.412,-3.233 0,1.077 0,1.078 1.077,1.078 5.028,5.028 0,1.078 -3.412,0 -2.693,-2.515 -3.412,-3.591 -1.257,0 -1.078,0 5.747,5.747 0.539,0.359 -4.67,0 -6.285,-6.106 -1.078,0 -0.718,0 0,0.359 6.105,6.105 0,4.67 -4.489,-4.67 -1.616,-1.436 0,1.078 0,0.358 0,0.719 5.927,5.747 0.178,0 0,6.285 12.212,0 25.323,0 18.676,0 z" /></g><g
         transform="translate(1039.4673,211.7334)"
         id="g32"><path
           inkscape:connector-curvature="0"
           id="path34"
           style="fill:#dd5b40;fill-opacity:1;fill-rule:nonzero;stroke:none"
           d="m 0,0 -2.229,0 12.257,11.885 0,-2.229 0,-2.228 L 2.6,0 0,0 Z m -4.457,49.398 -10.028,-10.028 9.657,0.371 0.371,0.372 0,9.285 z M -54.97,3.714 l 8.914,8.914 -8.914,0 0,-8.914 z m -12.628,-57.569 0,-0.744 -0.743,0 -2.228,0 2.971,2.972 0,-2.228 z m -2.228,-58.684 -2.229,0 4.457,4.457 0,-2.229 0,-2.228 -2.228,0 z m -20.057,38.627 2.229,0 2.228,0 -8.914,-8.914 0,2.228 0,2.229 4.457,4.457 z m 8.171,-5.942 0,18.942 26.742,0 0,-38.999 -14.113,0 -12.629,-12.628 -2.228,0 -2.229,0 12.629,12.628 -8.543,0 0,1.114 -12.257,-12.628 0,2.6 0,2.228 12.628,12.628 -0.371,9.286 -12.257,-12.256 0,2.228 0,2.229 12.628,12.628 z m -6.685,106.596 2.228,0 2.229,0 -10.4,-10.771 0,2.599 0,2.229 5.943,5.943 z m -44.199,98.053 4.829,4.086 -4.829,0 0,-4.086 z m -13.371,-72.797 -2.228,0 2.971,2.971 0,-2.228 0,-0.743 -0.743,0 z m -22.284,91.194 2.229,0 -5.944,-6.401 0,2.635 0,2.257 1.487,1.509 2.228,0 z m 8.914,-3.169 0,15.971 181.622,0 0,-143.366 -21.171,0 -13,-12.628 -2.228,0 -2.229,0 13,12.628 -9.657,0 L -25.999,0 l -2.229,0 -2.228,0 12.628,12.628 -9.285,0 -13,-12.628 -2.229,0 -2.228,0 12.628,12.628 -9.286,0 L -54.227,0 l -0.743,0 0,-41.599 -12.628,0 0,-0.371 -12.628,-12.629 -2.228,0 -2.229,0 12.628,13 -9.657,0 -12.628,-13 0,2.229 0,2.228 12.628,12.629 -0.371,9.657 -12.257,-12.628 0,2.228 0,2.229 12.628,12.628 -0.371,9.657 -12.257,-12.629 0,2.228 0,2.229 12.628,12.629 -0.371,9.656 -12.257,-12.628 0,2.229 0,2.599 12.628,12.257 -0.371,9.657 -12.257,-12.629 0,2.229 0,2.601 12.628,12.256 0,20.428 64.627,0 0,2.252 12.628,12.75 0,9.749 -12.628,-12.75 0,2.246 0,2.252 12.628,12.75 0,9.75 -12.628,-12.629 0,2.229 0,2.228 12.628,12.628 0,9.657 -12.628,-12.628 0,2.229 0,2.228 12.628,12.628 0,9.657 -12.628,-12.628 0,2.228 0,2.229 12.628,12.628 0,9.657 -12.628,-12.628 0,2.228 0,2.229 12.628,12.349 0,3.993 -5.571,0 -13,-12.628 -2.229,0 -2.228,0 13,12.628 -9.658,0 -12.999,-12.628 -2.228,0 -2.229,0 12.628,12.628 -9.285,0 -13,-12.628 -2.228,0 -2.229,0 12.629,12.628 -9.286,0 -12.999,-12.628 -2.229,0 -2.228,0 12.628,12.628 -9.656,0 -12.629,-12.628 -2.229,0 -2.228,0 12.628,12.628 -9.657,0 -12.628,-12.628 -2.228,0 -2.6,0 12.999,12.628 -9.657,0 -12.628,-12.628 -2.228,0 -2.6,0 13,12.628 -9.657,0 -12.628,-12.628 -2.601,0 -2.227,0 12.999,12.628 -9.658,0 -9.285,-9.233 0,-54.279 -12.628,0 0,-0.371 -12.628,-12.629 -2.228,0 -2.229,0 12.999,13 -9.656,0 -13,-13 0,2.229 0,2.228 12.629,12.629 0,9.656 -12.629,-12.628 0,2.228 0,2.229 12.629,12.628 0,9.657 -12.629,-12.628 0,2.228 0,2.229 12.629,12.628 0,9.657 -12.629,-12.628 0,2.228 0,2.228 12.629,12.629 0,9.657 -12.629,-12.628 0,2.228 0,2.228 12.629,12.466 0,9.535 -12.629,-12.344 0,2.229 0,2.6 12.629,12.256 z" /></g><g
         transform="translate(360.1157,96.8965)"
         id="g36"><path
           inkscape:connector-curvature="0"
           id="path38"
           style="fill:#dd5b40;fill-opacity:1;fill-rule:nonzero;stroke:none"
           d="m 0,0 4.48,4.457 0,-2.6 L 4.48,0 2.24,0 0,0 Z m -8.212,232.135 12.692,12.628 0,-2.229 0,-2.228 -8.212,-8.171 -2.24,0 -2.24,0 z m -32.841,-192.394 5.478,0 0.122,5.2 -5.6,-5.2 z m -26.597,-12.999 -5.583,-5.571 0,2.6 0,2.228 1.114,0.743 2.235,0 2.234,0 z m 5.948,232.332 -11.531,-11.613 0,2.229 0,2.228 7.068,7.156 2.229,0 2.234,0 z M -151.143,0 l -2.24,0 -2.24,0 4.852,5.2 0,-2.6 0,-2.229 L -151.143,0 Z m -6.72,167.508 -5.85,0 0.25,-5.199 5.6,5.199 z m 6.714,77.255 -9.9,0 -2.664,-2.519 0.25,-9.367 12.314,11.886 z m -45.527,-205.022 6.221,0 0.122,5.944 -6.343,-5.944 z m -26.835,-12.999 -4.828,-4.829 0,2.601 0,2.228 2.6,0 2.228,0 z m 5.943,232.332 -10.771,-10.858 0,2.228 0,2.229 6.314,6.401 2.228,0 2.229,0 z m 156.737,12.802 77.626,0 0,-27.113 -22.221,0 -4.521,-4.8 c -2.722,-16.005 -7.98,-28.558 -15.768,-37.664 -7.788,-9.111 -16.012,-16.127 -24.664,-21.049 4.944,-2.971 9.889,-6.627 14.833,-10.956 4.945,-4.335 9.401,-9.599 13.359,-15.785 3.958,-6.193 7.173,-13.499 9.646,-21.913 2.472,-8.421 3.708,-18.078 3.708,-28.971 l 0,-63.884 25.628,0 0,-27.113 -13.812,0 L -9.704,0 l -2.239,0 -2.241,0 12.692,12.628 -9.703,0 L -23.881,0 l -2.24,0 -2.24,0 12.686,12.628 -9.703,0 L -38.064,0 l -2.241,0 -2.239,0 12.691,12.628 -9.703,0 L -52.248,0 l -2.24,0 -2.612,0 13.064,12.628 -9.605,0 L -66.199,0 l -2.583,0 -2.217,0 12.779,12.628 -2.611,0 0.249,7.057 -6.325,-6.314 -6.326,-6.314 0,2.6 0,2.229 1.457,1.485 10.945,11.143 0,15.227 15.228,0 10.028,10.029 0.122,9.285 -12.75,-12.257 0,2.228 0,2.229 12.628,12.629 0.122,9.285 -12.75,-12.257 0,2.229 0,2.228 12.628,12.628 0.122,9.657 -12.75,-12.628 0,2.229 0,2.227 12.628,12.629 0.122,9.657 -12.75,-12.628 0,1.857 0,0.371 0.058,2.229 12.57,12.628 c 0,1.485 -0.052,2.971 -0.156,4.457 -0.105,1.485 -0.262,2.971 -0.471,4.457 l -12.744,-12.628 c 0,0.986 -0.127,1.607 -0.371,1.857 0,0.986 -0.11,1.729 -0.319,2.229 l 12.68,12.256 c -0.25,2.472 -0.871,5.072 -1.857,7.799 l -12.686,-12.628 c 0,0.494 -0.064,0.801 -0.186,0.929 -0.128,0.122 -0.186,0.43 -0.186,0.929 -0.255,0.243 -0.377,0.493 -0.377,0.742 0,0.244 -0.127,0.494 -0.371,0.743 l 12.674,12.628 c -0.499,1.236 -0.992,2.351 -1.485,3.343 -0.5,0.986 -0.993,2.1 -1.486,3.343 l -12.686,-12.628 c -0.255,0.244 -0.377,0.493 -0.377,0.743 0,0.243 -0.128,0.493 -0.372,0.742 -0.25,0.244 -0.435,0.493 -0.563,0.743 -0.128,0.244 -0.313,0.493 -0.557,0.743 l 13,12.628 c -0.743,0.987 -1.428,1.915 -2.043,2.786 -0.621,0.865 -1.3,1.793 -2.043,2.786 l -12.489,-12.628 -1.068,1.114 -1.073,1.114 12.628,12.628 c -0.743,0.986 -1.549,1.857 -2.414,2.6 -0.871,0.742 -1.672,1.486 -2.415,2.228 l -13.005,-12.628 c -0.25,0.244 -0.435,0.371 -0.563,0.371 -0.127,0 -0.313,0.123 -0.557,0.372 l -1.114,1.114 12.628,12.628 c -0.992,0.743 -1.985,1.422 -2.971,2.043 -0.993,0.615 -1.985,1.173 -2.971,1.672 l -12.641,-12.628 -1.485,0.742 c -0.255,0.244 -0.441,0.372 -0.563,0.372 -0.128,0 -0.313,0.121 -0.557,0.371 l -0.372,0 12.629,12.999 c -1.242,0.494 -2.357,0.929 -3.343,1.301 -0.993,0.371 -2.107,0.801 -3.343,1.3 L -86.25,149.68 c -0.499,0.244 -0.807,0.372 -0.928,0.372 -0.128,0 -0.436,0.122 -0.935,0.371 -0.249,0 -0.499,0.058 -0.742,0.186 -0.25,0.122 -0.622,0.185 -1.115,0.185 l 10.04,10.029 2.977,2.6 c -2.484,0.986 -4.962,1.729 -7.44,2.228 l -8.554,-8.542 -4.463,-4.086 c -0.742,0 -1.363,0.122 -1.862,0.372 -0.743,0 -1.364,0.122 -1.857,0.371 l 2.233,2.229 10.412,10.399 c -3.471,0.743 -6.326,1.114 -8.554,1.114 l -12.28,-12.628 -0.371,0 -2.229,0 -2.234,0 2.234,2.229 10.789,10.399 -9.675,0 -1.114,-1.114 -11.909,-11.514 -2.228,0 -2.235,0 12.652,12.628 -9.221,0 -12.901,-12.628 -2.218,0 -2.21,0 12.413,12.628 -9.233,0 -12.93,-12.628 -2.217,0 -2.217,0 12.686,12.628 -9.825,0 -10.202,-10.028 0,-117.739 25.628,0 0,-27.113 -14.555,0 L -165.327,0 l -2.239,0 -2.241,0 12.686,12.628 -9.703,0 L -179.51,0 l -2.24,0 -2.24,0 3.732,3.714 4.108,4.457 4.852,4.457 -9.703,0 -8.961,-8.914 -3.731,-3.714 -2.241,0 -2.611,0 4.103,3.714 8.961,8.914 -9.704,0 -7.84,-7.8 -4.851,-4.828 -2.612,0 -2.241,0 9.704,9.657 3.36,2.971 -9.703,0 L -222.025,0 l -2.6,0 -2.229,0 13.011,12.628 -1.868,0 0,7.8 -7.057,-7.057 -5.571,-5.571 0,2.228 0,2.6 0.742,0.743 11.886,11.514 0,14.856 14.485,0 10.771,10.772 0.122,9.285 -12.75,-12.257 0,2.229 0,2.228 12.628,12.628 0.122,9.286 -12.75,-12.257 0,2.229 0,2.228 12.628,12.628 0.122,9.656 -12.75,-12.627 0,2.228 0,2.229 12.628,12.628 0.122,9.657 -12.75,-12.628 0,2.228 0,2.229 12.628,12.628 0.122,9.656 -12.75,-12.628 0,2.229 0,2.228 12.628,12.628 0.122,9.657 -12.75,-12.628 0,2.229 0,2.228 12.628,12.628 0.122,9.657 -12.75,-12.628 0,2.228 0,2.229 12.628,12.628 0.122,9.657 -12.75,-12.628 0,2.228 0,2.228 12.628,12.629 0.122,9.657 -12.75,-12.628 0.058,2.228 -0.058,2.6 12.628,12.257 0.122,9.656 -12.75,-12.628 0,2.6 0,2.229 12.628,12.627 0.122,9.286 -12.75,-12.628 0,2.6 0,2.228 12.628,12.629 0.122,9.285 -12.75,-12.257 0,2.229 0,2.228 12.628,12.629 0.122,9.656 -12.75,-12.628 0,2.228 0,2.229 10.771,10.4 1.857,2.228 0.122,9.657 -11.572,-11.885 -1.12,-0.743 0,0.743 -1.12,0 -2.612,0 3.732,3.609 9.332,9.019 -9.703,0 -12.652,-12.628 -2.6,0 -2.228,0 13,12.628 -7.835,0 0,1.857 -1.115,-1.115 -11.513,-11.142 0,2.229 0,2.228 6.685,7.057 5.943,5.571 0,20.428 77.626,0 0,-27.113 -12.814,0 0,-1.805 0,-2.165 -8.67,-8.658 -2.258,0 -1.886,0 0,-37.513 63.942,0 c 4.212,0.243 7.863,0.615 10.962,1.114 3.099,0.493 6.627,1.3 10.597,2.414 3.963,1.114 8.055,2.786 12.268,5.014 0.987,0.494 1.979,1.051 2.971,1.671 0.987,0.616 1.979,1.301 2.978,2.043 l 2.599,2.6 c 0.494,0.743 0.987,1.544 1.486,2.415 0.493,0.864 0.987,1.793 1.486,2.785 l 12.268,12.257 c 1.985,3.958 3.593,8.786 4.834,14.485 l -8.954,-9.285 -3.36,-3.343 c 0,0.493 0.058,0.986 0.185,1.485 0.122,0.494 0.186,0.987 0.186,1.486 l 0,0.372 -1.863,0 2.24,2.164 10.824,10.464 -9.611,0 -0.371,-0.36 -12.199,-12.268 -2.217,0 -2.588,0 12.802,12.628 -8.467,0 0,1.114 -0.371,-0.372 -12.147,-11.885 0,2.229 0,2.228 7.661,7.8 4.741,4.829 0,21.17 z" /></g><g
         transform="translate(468.6465,96.8965)"
         id="g40"><path
           inkscape:connector-curvature="0"
           id="path42"
           style="fill:#dd5b40;fill-opacity:1;fill-rule:nonzero;stroke:none"
           d="M 0,0 -1.114,0 0,1.114 0,0 Z m -12.628,243.277 1.857,1.486 -1.857,0 0,-1.486 z m -26.62,-201.307 -2.612,-2.229 2.49,0 0.122,2.229 z m -31.692,-15.228 2.228,0 -8.542,-8.543 0,2.229 0,2.599 4.085,3.715 2.229,0 z m -6.314,232.506 0.371,0 -0.371,-0.372 0,0.372 z m 12.628,-0.174 0,12.802 77.626,0 0,-27.113 -18.844,0 -6.784,-6.169 0.25,-9.431 3.359,2.972 9.332,9.657 0,-2.229 0,-2.229 -4.95,-5.199 -7.991,-7.429 0,-184.965 25.628,0 0,-27.113 -12.687,0 0,-1.857 L -10.51,0 l -2.24,0 -2.24,0 12.686,12.628 -9.703,0 L -24.693,0 l -2.241,0 -2.239,0 3.731,3.714 0.377,0.743 8.584,8.171 -9.704,0 -8.954,-8.914 -3.732,-3.714 -2.24,0 -2.24,0 3.731,3.714 8.955,8.914 -9.703,0 -8.955,-8.914 -3.731,-3.714 -2.24,0 -2.241,0 5.595,5.571 7.091,7.057 -9.703,0 L -67.197,0 l -2.229,0 -2.599,0 12.999,12.628 -5.6,0 0,4.086 -3.343,-3.343 -9.285,-9.285 0,2.228 0,2.229 4.828,4.828 7.8,7.8 0,18.57 18.199,0 7.057,6.686 0.122,9.657 -12.75,-12.628 0.058,2.229 -0.058,2.599 12.628,12.257 0.122,9.656 -12.75,-12.628 0,2.6 0,2.228 12.628,12.629 0.122,9.286 -12.75,-12.257 0,2.228 0,2.229 12.628,12.628 0.122,9.285 -12.75,-12.257 0,2.228 0,2.229 12.628,12.629 0.122,9.656 -12.75,-12.628 0,2.229 0,2.228 12.628,12.628 0.122,9.657 -12.75,-12.628 0,2.228 0,2.229 12.628,12.628 0.122,9.657 -12.75,-12.628 0,2.228 0,2.229 12.628,12.628 0.122,9.656 -12.75,-12.628 0,2.229 0,2.229 12.628,12.627 0.122,9.657 -12.75,-12.628 0,2.229 0,2.228 12.628,12.628 0.122,9.657 -12.75,-12.628 0.058,2.229 -0.058,2.6 12.628,12.256 0.122,9.657 -12.75,-12.628 0.058,2.228 -0.058,2.6 12.628,12.257 0.122,9.657 -12.75,-12.628 0,2.6 0,2.228 12.628,12.628 0.122,9.285 -12.75,-12.256 0,2.228 0,2.229 12.628,12.628 0.122,9.285 -7.876,-7.799 -4.874,-4.457 0,2.228 0,2.229 0.435,0 12.315,12.268 0,0.36 -9.326,0 -3.36,-3.25 -9.292,-9.378 -2.228,0 -2.6,0 13,12.628 -9.704,0 -12.639,-12.628 -1.857,0 0,0.742 0,2.229 10.771,10.672 1.857,1.84 0,9.57 -11.514,-11.625 -1.114,-1.114 0,1.114 0,1.115 0,2.228 10.028,10.168 2.228,0 0.372,0 z" /></g><g
         transform="translate(703.3208,246.0269)"
         id="g44"><path
           inkscape:connector-curvature="0"
           id="path46"
           style="fill:#55514b;fill-opacity:1;fill-rule:nonzero;stroke:none"
           d="m 0,0 -0.992,0 4.964,4.964 0,-0.993 0,-0.993 L 0.993,0 0,0 Z m -16.38,20.351 -2.647,-2.647 3.309,0 -0.662,2.647 z m -34.745,87.029 1.82,1.655 -1.324,0 -0.496,-1.655 z M -75.612,0 l -0.992,0 2.978,2.978 0,-0.993 0,-0.992 L -74.619,0 -75.612,0 Z m 1.986,115.41 0.992,0 -5.294,-5.522 0,0.992 0,1.174 3.309,3.356 0.993,0 z m -11.748,-82.319 0.166,0.496 -0.166,-0.331 0,-0.165 z m 2.813,9.265 -4.302,-4.136 0.993,-3.309 1.489,1.489 1.82,5.956 z m -11.085,-23.66 -1.159,-0.992 1.49,0 -0.331,0.992 z m -10.755,84.713 -1.158,0 1.655,1.654 0,-0.992 0,-0.662 -0.497,0 z m -2.812,4.633 1.157,0.993 -1.488,0 0.331,-0.993 z m -0.994,-96.129 0.497,0 0.993,0 -1.49,-1.324 0,0.993 0,0.331 z m -18.034,96.004 1.158,1.118 -3.144,0 -1.323,-4.468 2.813,2.712 0.496,0.638 z M -152.083,0 l 0.993,0.993 0,-0.993 -0.993,0 z m -3.319,115.41 0.992,0 -1.158,-1.159 0,0.993 0,0.166 0.166,0 z m -10.812,-93.57 -4.157,-4.136 2.994,0 1.163,4.136 z m -17.274,-9.927 1.158,0 -3.475,-3.309 0,0.992 0,0.993 1.324,1.324 0.993,0 z m 115.487,-6.288 -7.28,0 -5.625,-5.625 -0.993,0 -0.993,0 5.625,5.625 -4.301,0 -5.626,-5.625 -0.993,0 -0.992,0 5.625,5.625 -4.301,0 -0.497,-0.496 -5.129,-5.129 -0.993,0 -1.158,0 5.791,5.625 -4.302,0 L -94.97,4.798 -99.768,0 l -0.993,0 -1.158,0 5.129,4.964 0.662,0.661 -4.302,0 -5.626,-5.625 -1.157,0 -0.994,0 5.791,5.625 -0.165,0 0,4.137 -3.805,-3.805 -1.821,-1.655 0,0.992 0,0.663 0,0.33 5.626,5.626 0,5.791 5.791,0 2.647,2.647 -0.992,3.309 -5.626,-5.625 -0.165,0.827 -0.166,0.661 5.626,5.626 -0.993,3.309 -5.625,-5.625 -0.166,0.827 -0.331,0.827 5.625,5.626 -0.992,3.309 -5.626,-5.626 -0.165,0.828 -0.165,0.662 5.625,5.625 -0.993,3.309 -5.625,-5.625 -0.331,0.827 -0.166,0.827 5.626,5.626 -0.993,3.309 -5.625,-5.626 -0.166,0.827 -0.331,0.662 5.626,5.626 -0.993,3.309 -5.625,-5.626 -0.166,0.828 -0.166,0.827 5.626,5.625 -0.993,3.309 -5.625,-5.625 -0.331,0.827 -0.165,0.662 5.625,5.626 -0.993,3.309 -5.625,-5.626 -0.166,0.827 -0.165,0.827 5.625,5.626 -0.992,3.309 -5.626,-5.625 -0.331,0.827 -0.165,0.662 5.625,5.625 -0.992,3.309 -5.626,-5.625 -0.166,0.827 -0.33,0.828 5.625,5.625 -0.993,3.309 -5.625,-5.625 -0.165,0.827 -0.166,0.662 5.626,5.625 -0.993,3.309 -5.625,-5.625 -0.332,0.827 -0.165,0.827 5.625,5.626 -0.992,3.309 -5.626,-5.626 -0.165,0.828 -0.331,0.662 5.625,5.625 -0.827,3.309 -5.625,-5.625 -0.331,0.827 -0.166,0.827 5.626,5.626 -0.993,3.309 -5.625,-5.626 -0.166,0.827 -0.331,0.662 5.626,5.626 -0.993,3.309 -5.625,-5.625 -0.166,0.827 -0.166,0.827 5.626,5.625 -0.993,3.309 -5.625,-5.625 -0.331,0.828 -0.165,0.661 5.625,5.626 -0.993,3.309 -3.144,-3.144 -2.481,-2.482 -0.166,0.827 -0.331,0.828 0.993,0.806 4.633,4.679 -0.166,0.968 -2.978,0 -0.331,-0.331 -2.975,-2.974 -2.472,-2.476 -0.987,0 -0.166,0 -25.046,-85.55 9.31,0 0,-12.079 -5.486,0 0,-0.331 -5.32,-5.294 -0.998,0 -1.163,0 5.819,5.625 -4.323,0 -5.654,-5.625 -0.998,0 -1.163,0 5.82,5.625 -4.323,0 -0.998,-0.827 -4.653,-4.798 -1.164,0 -0.998,0 5.318,5.129 0.499,0.496 -4.322,0 -5.817,-5.625 -0.998,0 -0.998,0 5.819,5.625 -4.322,0 -5.811,-5.625 -0.993,0 -0.993,0 5.801,5.625 -2.161,0 0,2.151 -1.82,-1.819 -3.806,-3.806 0,1.158 0,0.993 1.655,1.655 3.971,3.97 0,7.777 8.81,0 0.499,1.489 5.489,5.46 1.828,6.121 -5.655,-5.625 0.5,1.489 0.333,1.324 5.651,5.625 1.831,5.956 -5.654,-5.46 0.499,1.324 0.333,1.489 5.652,5.626 1.662,5.956 -5.486,-5.46 0.334,1.324 0.498,1.489 5.486,5.46 1.828,6.122 -5.651,-5.626 0.499,1.489 0.333,1.49 5.651,5.46 1.828,6.121 -5.651,-5.625 0.499,1.489 0.334,1.324 5.651,5.625 1.662,5.956 -5.486,-5.46 0.334,1.49 0.499,1.323 5.486,5.626 1.827,5.956 -5.654,-5.46 0.489,1.324 0.488,1.489 5.378,5.625 1.791,5.956 -5.485,-5.625 0.488,1.489 0.323,1.489 5.53,5.46 1.626,6.122 -5.307,-5.626 0.323,1.472 0.489,1.468 4.214,4.084 1.297,1.306 1.135,4.411 -1.137,0 -3.744,-3.858 -1.789,-1.768 -0.974,0 -0.977,0 4.51,4.501 0.968,1.125 -4.258,0 -5.569,-5.626 -0.982,0 -0.82,0 0,0.331 5.652,5.566 0,4.258 -4.155,-4.188 -1.497,-1.489 0,0.992 0,0.497 0,0.496 5.45,5.538 0.165,0 0,5.703 51.697,0 0,-12.078 -5.781,0 -2.642,-2.642 19.49,-66.684 5.461,5.625 1.819,5.957 -5.625,-5.46 0.331,1.323 0.496,1.49 5.626,5.625 1.654,5.957 -5.46,-5.626 0.331,1.489 0.497,1.489 5.46,5.46 1.819,6.122 -5.625,-5.625 0.496,1.488 0.331,1.324 5.625,5.626 1.82,6.122 -5.625,-5.626 0.496,1.489 0.331,1.324 5.625,5.625 1.655,5.957 -5.459,-5.46 0.33,1.323 0.497,1.489 5.459,5.626 1.82,5.956 -5.625,-5.625 0.496,1.489 0.331,1.489 5.625,5.46 1.821,6.122 -1.324,-1.324 -4.302,-4.302 0.497,1.466 0.331,1.463 1.488,1.303 4.137,4.067 0.496,1.629 -3.144,0 -1.158,-1.125 -4.633,-4.501 -0.992,0 -0.993,0 5.626,5.626 -3.971,0 0,0.165 -5.625,-5.46 0,0.993 0,0.993 3.64,3.805 1.985,1.82 0,9.762 51.621,0 0,-12.078 -7.776,0 -1.158,-1.115 0.993,-3.187 2.481,2.316 0,-0.993 0,-0.993 -1.654,-1.654 -0.496,0 25.148,-85.705 12.741,0 0,-12.079 -9.1,0 L -5.294,0 l -0.993,0 -0.992,0 5.625,5.625 -4.136,0 -5.791,-5.625 -0.993,0 -0.992,0 5.625,5.625 -4.302,0 -5.626,-5.625 -0.992,0 -0.993,0 5.625,5.625 -4.301,0 -0.662,-0.661 -4.964,-4.964 -0.992,0 -0.994,0 5.626,5.625 -4.301,0 -5.626,-5.625 -0.165,0 0,0.993 0,0.992 4.135,3.972 1.49,1.654 0,4.136 -5.625,-5.46 0,0.993 0,0.993 3.804,3.64 0.993,0 0.828,0 0,5.791 3.805,0 4.302,4.136 -0.993,3.309 -5.625,-5.626 -0.165,0.828 -0.331,0.827 5.625,5.626 -0.992,3.309 -5.626,-5.626 -0.165,0.827 -0.166,0.663 5.626,5.625 -0.994,3.309 -5.625,-5.625 -0.331,0.827 -0.166,0.827 5.626,5.625 -0.993,3.31 -5.625,-5.626 -0.166,0.827 -0.33,0.662 5.625,5.626 -0.827,3.309 -5.625,-5.626 -0.331,0.828 -0.166,0.827 5.626,5.625 -0.993,3.309 -5.625,-5.625 -0.166,0.827 -0.331,0.662 5.626,5.625 -0.994,3.31 -5.625,-5.626 -0.166,0.827 -0.165,0.827 5.625,5.626 -0.992,3.309 -5.626,-5.626 -0.33,0.828 -0.166,0.662 5.626,5.625 -0.993,3.309 -5.625,-5.625 -0.166,0.827 -0.331,0.828 5.626,5.625 -0.827,3.309 -5.626,-5.625 -0.331,0.827 -0.165,0.661 5.625,5.626 -0.993,3.309 -5.626,-5.625 -0.165,0.827 -0.331,0.827 5.626,5.626 -0.993,3.309 -5.625,-5.626 -0.166,0.662 -0.165,0.828 5.625,5.625 -0.992,3.309 -5.626,-5.625 -0.331,0.827 -0.165,0.827 5.625,5.626 -0.992,3.309 -5.626,-5.626 -0.165,0.662 -0.331,0.827 5.625,5.626 -0.828,3.309 -5.625,-5.626 -0.331,0.828 -0.165,0.827 5.625,5.625 -0.992,3.309 -5.626,-5.625 -0.165,0.662 -0.331,0.827 5.625,5.626 -0.992,3.309 -5.626,-5.626 -0.165,0.827 -0.166,0.827 4.137,4.137 1.489,1.489 -0.993,3.309 -4.633,-4.798 -1.158,0 -0.165,0 -0.828,0 0.663,0.662 5.128,4.964 -4.301,0 -1.159,-1.156 -0.662,-0.662 -2.812,-2.807 -25.315,-86.706 9.266,0 0,-12.079 z" /></g><g
         transform="translate(753.9487,246.0269)"
         id="g48"><path
           inkscape:connector-curvature="0"
           id="path50"
           style="fill:#55514b;fill-opacity:1;fill-rule:nonzero;stroke:none"
           d="M 0,0 -0.496,0 0,0.497 0,0 Z m -5.625,108.373 0.827,0.662 -0.827,0 0,-0.662 z m -11.858,-89.677 -1.163,-0.992 1.108,0 0.055,0.992 z m -14.119,-6.783 0.994,0 -3.806,-3.806 0,0.993 0,1.158 1.82,1.655 0.992,0 z m -2.812,103.574 0.165,0 -0.165,-0.165 0,0.165 z m 5.625,-0.077 0,5.703 34.58,0 0,-12.078 -8.394,0 -3.022,-2.748 0.111,-4.202 1.497,1.324 4.157,4.302 0,-0.993 0,-0.992 -2.205,-2.317 -3.56,-3.309 0,-82.396 11.416,0 0,-12.079 -5.651,0 0,-0.827 L -4.682,0 -5.68,0 l -0.997,0 5.652,5.625 -4.324,0 L -11,0 l -0.998,0 -0.997,0 1.662,1.655 0.168,0.33 3.823,3.64 -4.322,0 -3.989,-3.97 -1.662,-1.655 -0.998,0 -0.999,0 1.664,1.655 3.988,3.97 -4.322,0 -3.99,-3.97 -1.662,-1.655 -0.998,0 -0.998,0 2.492,2.482 3.159,3.143 -4.322,0 -5.633,-5.625 -0.993,0 -1.158,0 5.791,5.625 -2.495,0 0,1.82 -1.488,-1.488 -4.137,-4.137 0,0.993 0,0.993 2.151,2.151 3.474,3.474 0,8.273 8.107,0 3.144,2.978 0.055,4.301 -5.68,-5.625 0.025,0.993 -0.025,1.158 5.625,5.46 0.055,4.302 -5.68,-5.625 0,1.158 0,0.992 5.625,5.626 0.055,4.136 -5.68,-5.46 0,0.993 0,0.992 5.625,5.626 0.055,4.136 -5.68,-5.46 0,0.993 0,0.993 5.625,5.626 0.055,4.301 -5.68,-5.625 0,0.993 0,0.992 5.625,5.626 0.055,4.301 -5.68,-5.625 0,0.993 0,0.992 5.625,5.626 0.055,4.302 -5.68,-5.626 0,0.993 0,0.993 5.625,5.625 0.055,4.302 -5.68,-5.625 0,0.992 0,0.993 5.625,5.626 0.055,4.301 -5.68,-5.625 0,0.992 0,0.993 5.625,5.626 0.055,4.301 -5.68,-5.625 0.025,0.993 -0.025,1.158 5.625,5.46 0.055,4.302 -5.68,-5.626 0.025,0.993 -0.025,1.158 5.625,5.46 0.055,4.302 -5.68,-5.625 0,1.158 0,0.992 5.625,5.626 0.055,4.136 -5.68,-5.46 0,0.993 0,0.993 5.625,5.625 0.055,4.137 -3.508,-3.475 -2.172,-1.985 0,0.993 0,0.992 0.193,0 5.487,5.465 0,0.161 -4.155,0 -1.497,-1.448 -4.138,-4.178 -0.994,0 -1.158,0 5.791,5.626 -4.322,0 -5.631,-5.626 -0.827,0 0,0.331 0,0.993 4.798,4.754 0.827,0.82 0,4.262 -5.129,-5.178 -0.496,-0.496 0,0.496 0,0.497 0,0.992 4.467,4.53 0.993,0 0.165,0 z" /></g><g
         transform="translate(843.7905,321.1431)"
         id="g52"><path
           inkscape:connector-curvature="0"
           id="path54"
           style="fill:#55514b;fill-opacity:1;fill-rule:nonzero;stroke:none"
           d="m 0,0 -0.993,0 4.467,4.467 0,-0.992 0,-0.993 L 0.992,0 0,0 Z m -25.48,32.264 1.985,1.819 -1.985,0 0,-1.819 z m -28.79,-98.28 0,-0.993 0,-0.992 4.798,4.797 -0.992,0 -0.993,0 -2.813,-2.812 z m -5.791,95.302 4.964,4.797 -4.449,0 -0.515,-0.496 0,-4.301 z M -69.403,0 l -1.149,0 4.918,4.798 0,-0.992 0,-0.993 L -68.421,0 -69.403,0 Z m -3.604,40.371 0.983,0 -5.575,-5.46 0,0.993 0,0.992 3.607,3.475 0.985,0 z m 1.033,-4.136 0,9.927 81.074,0 0,-40.537 -8.77,0 L -5.295,0 -6.288,0 -7.28,0 l 5.625,5.625 -1.158,0 0,2.979 -5.625,-5.625 0,1.158 0,0.992 5.625,5.626 0,4.136 -5.625,-5.46 0,0.993 0,0.993 5.625,5.625 0,4.302 -5.625,-5.626 0,0.993 0,0.993 5.625,5.625 0,4.302 -5.625,-5.626 0,0.993 0,0.993 5.625,5.626 0,4.301 -5.625,-5.625 0,0.165 -0.828,0 -0.993,0 5.626,5.625 -4.302,0 -5.626,-5.625 -0.992,0 -1.158,0 5.79,5.625 -4.302,0 -5.625,-5.625 -1.158,0 -0.993,0 5.791,5.625 -4.302,0 -3.97,-3.805 0,-87.691 11.416,0 0,-12.078 -5.625,0 0,-0.827 0,-0.993 -3.971,-3.805 -0.993,0 -0.993,0 5.791,5.625 -4.302,0 -5.79,-5.625 -0.993,0 -0.994,0 5.791,5.625 -4.301,0 -5.791,-5.625 -0.993,0 -0.993,0 5.626,5.625 -4.136,0 -5.791,-5.625 -0.993,0 -0.993,0 5.626,5.625 -4.303,0 -5.625,-5.625 -0.993,0 -0.992,0 5.625,5.625 -3.475,0 0,0.827 -5.625,-5.625 0,0.993 0,0.992 5.625,5.626 0,9.265 9.266,0 1.985,1.986 0,4.302 -5.625,-5.626 0,0.993 0,1.158 5.625,5.46 0,4.302 -5.625,-5.625 0,1.158 0,0.992 5.625,5.626 0,4.136 -5.625,-5.46 0,0.993 0,0.993 5.625,5.625 0,4.302 -5.625,-5.626 0,0.993 0,0.993 5.625,5.625 0,4.302 -5.625,-5.625 0,0.993 0,0.992 5.625,5.626 0,4.302 -5.625,-5.626 0,0.993 0,0.992 5.625,5.626 0,4.302 -5.625,-5.626 0,0.993 0,0.993 5.625,5.625 0,4.302 -5.625,-5.625 0,0.992 0,0.993 5.625,5.626 0,4.301 -5.625,-5.625 0,0.993 0,1.158 5.625,5.46 0,4.301 -5.625,-5.625 0,1.158 0,0.993 5.625,5.625 0,4.137 -5.625,-5.46 0,0.993 0,0.992 5.625,5.626 0,4.302 -5.625,-5.626 0,0.993 0,0.993 5.625,5.625 0,4.302 -5.625,-5.626 0,0.993 0,0.993 5.625,5.625 0,4.302 -2.481,-2.482 -3.144,-3.144 0,0.994 0,0.992 1.159,1.158 4.466,4.468 0,1.157 -2.977,0 -2.648,-2.481 -3.143,-3.144 -0.993,0 -0.992,0 5.128,5.129 0.497,0.496 -4.302,0 -5.625,-5.625 -0.993,0 -0.993,0 5.625,5.625 -4.366,0 -5.708,-5.625 -1.009,0 -0.168,0 0,-22.833 -9.014,0 -5.573,-5.625 -1.149,0 -0.982,0 5.799,5.625 -0.994,0 -0.05,3.31 -5.575,-5.626 0,1.158 0,0.993 5.625,5.625 -0.05,4.137 -5.575,-5.46 0,0.993 0,0.993 5.625,5.625 -0.05,4.302 -5.575,-5.626 0,0.993 0,0.993 5.625,5.625 -0.05,4.302 -5.575,-5.626 0,0.993 0,0.993 5.625,5.625 0,4.302 -5.625,-5.625 0,0.993 0,0.992 5.625,5.626 z" /></g><path
         inkscape:connector-curvature="0"
         id="path56"
         style="fill:#55514b;fill-opacity:1;fill-rule:nonzero;stroke:none"
         d="m 1088.98,71.076 -980.088,0 0,13.787 980.088,0 0,-13.787 z" /><path
         inkscape:connector-curvature="0"
         id="path58"
         style="fill:#55514b;fill-opacity:1;fill-rule:nonzero;stroke:none"
         d="m 1088.98,381.303 -980.088,0 0,13.788 980.088,0 0,-13.788 z" /></g><flowRoot
       xml:space="preserve"
       id="flowRoot5915"
       style="font-style:normal;font-weight:normal;font-size:40px;line-height:125%;font-family:sans-serif;letter-spacing:0px;word-spacing:0px;fill:#dd5b40;fill-opacity:1;stroke:none;stroke-width:1px;stroke-linecap:butt;stroke-linejoin:miter;stroke-opacity:1"
       transform="matrix(1.0022836,0,0,-1.0022836,127.83736,1125.211)"><flowRegion
         id="flowRegion5917"><rect
           id="rect5919"
           width="1283.7664"
           height="235.99876"
           x="344.79251"
           y="713.44873"
           style="fill:#dd5b40;fill-opacity:1" /></flowRegion><flowPara
         id="flowPara5921"
         style="font-style:normal;font-variant:normal;font-weight:normal;font-stretch:normal;font-size:100px;font-family:'Roboto Slab';-inkscape-font-specification:'Roboto Slab';fill:#dd5b40;fill-opacity:1">kimittud.org</flowPara></flowRoot></g><g
     inkscape:groupmode="layer"
     id="layer10"
     inkscape:label="kimittud.atlatszo.hu" /><g
     inkscape:groupmode="layer"
     id="layer9"
     inkscape:label="="
     style="display:inline"><rect
       style="display:inline;opacity:1;fill:#55514b;fill-opacity:1;fill-rule:nonzero;stroke:none;stroke-width:3;stroke-linecap:round;stroke-miterlimit:4;stroke-dasharray:none;stroke-opacity:1"
       id="rect6097"
       width="728.91125"
       height="10.242978"
       x="595.56494"
       y="317.51804" /><rect
       y="548.22974"
       x="595.56494"
       height="10.242978"
       width="728.91125"
       id="rect6099"
       style="display:inline;opacity:1;fill:#55514b;fill-opacity:1;fill-rule:nonzero;stroke:none;stroke-width:3;stroke-linecap:round;stroke-miterlimit:4;stroke-dasharray:none;stroke-opacity:1" /></g><g
     inkscape:groupmode="layer"
     id="layer6"
     inkscape:label="?"><g
       id="g6134"
       style="fill:#dd5b40;fill-opacity:1"
       transform="matrix(0.59496005,0,0,0.59496005,388.84609,177.4075)"><rect
         y="269.69464"
         x="1311.4854"
         height="113.27412"
         width="33.433868"
         id="rect6084"
         style="display:inline;opacity:1;fill:#dd5b40;fill-opacity:1;fill-rule:nonzero;stroke:none;stroke-width:3;stroke-linecap:round;stroke-miterlimit:4;stroke-dasharray:none;stroke-opacity:1" /><rect
         style="display:inline;opacity:1;fill:#dd5b40;fill-opacity:1;fill-rule:nonzero;stroke:none;stroke-width:3;stroke-linecap:round;stroke-miterlimit:4;stroke-dasharray:none;stroke-opacity:1"
         id="rect6087"
         width="227.02094"
         height="33.875042"
         x="1311.4854"
         y="269.69464" /><rect
         y="269.69464"
         x="1505.1057"
         height="179.19353"
         width="33.400517"
         id="rect6089"
         style="display:inline;opacity:1;fill:#dd5b40;fill-opacity:1;fill-rule:nonzero;stroke:none;stroke-width:3;stroke-linecap:round;stroke-miterlimit:4;stroke-dasharray:none;stroke-opacity:1" /><rect
         style="display:inline;opacity:1;fill:#dd5b40;fill-opacity:1;fill-rule:nonzero;stroke:none;stroke-width:3;stroke-linecap:round;stroke-miterlimit:4;stroke-dasharray:none;stroke-opacity:1"
         id="rect6091"
         width="129.96301"
         height="33.381027"
         x="1408.5432"
         y="415.50714" /><rect
         y="415.50714"
         x="1408.5432"
         height="101.21552"
         width="33.393906"
         id="rect6093"
         style="display:inline;opacity:1;fill:#dd5b40;fill-opacity:1;fill-rule:nonzero;stroke:none;stroke-width:3;stroke-linecap:round;stroke-miterlimit:4;stroke-dasharray:none;stroke-opacity:1" /><rect
         style="display:inline;opacity:1;fill:#dd5b40;fill-opacity:1;fill-rule:nonzero;stroke:none;stroke-width:3;stroke-linecap:round;stroke-miterlimit:4;stroke-dasharray:none;stroke-opacity:1"
         id="rect6095"
         width="33.393906"
         height="48.75626"
         x="1408.5432"
         y="540.81653" /></g></g><g
     inkscape:groupmode="layer"
     id="layer7"
     inkscape:label="TUD"
     style="display:inline"><path
       style="display:inline;opacity:1;fill:#55514b;fill-opacity:1;fill-rule:nonzero;stroke:none;stroke-width:3;stroke-linecap:round;stroke-miterlimit:4;stroke-dasharray:none;stroke-opacity:1"
       d="m 1081.5378,451.71089 -9.0768,-0.004 -0.01,-9.74508 42.8739,0.007 c 19.4048,0 31.6541,15.16389 31.6015,33.88506 l 0,28.1809 c -0.2603,24.35617 -22.0274,31.2768 -33.1085,31.2768 l -41.365,0.003 0,-9.74917 9.0801,0 z"
       id="path6078"
       inkscape:connector-curvature="0"
       sodipodi:nodetypes="ccccccccccc" /><path
       style="display:inline;opacity:1;fill:#fffff3;fill-opacity:1;fill-rule:nonzero;stroke:none;stroke-width:3;stroke-linecap:round;stroke-miterlimit:4;stroke-dasharray:none;stroke-opacity:1"
       d="m 1091.1789,451.70728 25.2945,0.002 c 13.0891,0.14874 20.8625,11.38546 20.8933,23.30799 l 0,27.72026 c 0,15.82884 -11.7549,22.72327 -23.2716,22.82844 l -22.9392,0 z"
       id="path6082"
       inkscape:connector-curvature="0"
       sodipodi:nodetypes="ccccccc" /><path
       style="display:inline;opacity:1;fill:#55514b;fill-opacity:1;fill-rule:nonzero;stroke:none;stroke-width:3;stroke-linecap:round;stroke-miterlimit:4;stroke-dasharray:none;stroke-opacity:1"
       d="m 978.83183,441.95767 3.9e-4,9.74336 9.0817,0.0131 0,50.82039 c 0,0 0.34847,32.7766 32.73188,32.78208 32.3835,0.005 32.5784,-32.75361 32.5784,-32.75361 l 4e-4,-50.85226 9.2155,-0.013 0,-9.73849 -27.9161,0.001 0.019,9.74247 9.0631,0.009 0,50.40407 c -0.3359,4.5591 -0.6202,23.3571 -22.5074,23.44687 -21.88718,0.0898 -23.20198,-18.87176 -23.57009,-23.81499 l 0,-50.04034 9.21519,-0.023 0,-9.72439 z"
       id="path6076"
       inkscape:connector-curvature="0"
       sodipodi:nodetypes="cccczcccccccczccccc" /><path
       sodipodi:nodetypes="ccccccccccccccccc"
       d="m 903.52262,441.95819 65.42625,0 0,32.71314 -9.61372,0 0,-22.96033 -18.29214,0.006 0,73.82616 9.21266,0 0,9.74688 -27.90668,0 0,-9.74688 9.04712,0 0.0324,-73.83676 -18.29216,-0.002 0,22.96796 -9.61372,0 z"
       style="display:inline;opacity:1;fill:#55514b;fill-opacity:1;fill-rule:nonzero;stroke:none"
       id="path6058"
       inkscape:connector-curvature="0" /></g><g
     inkscape:groupmode="layer"
     id="layer5"
     inkscape:label="MIT"
     style="display:inline"><path
       inkscape:connector-curvature="0"
       id="path54-5"
       style="display:inline;opacity:1;fill:#55514b;fill-opacity:1;fill-rule:nonzero;stroke:none"
       d="m 1088.5892,338.17961 60.2947,0 0,30.14737 -8.8597,0 0,-21.15949 -16.8574,0.005 0,68.03581 8.49,0 0,8.98241 -25.7178,0 0,-8.98241 8.3375,0 0.03,-68.04558 -16.8574,-0.002 0,21.16654 -8.8597,0 z"
       sodipodi:nodetypes="ccccccccccccccccc" /><path
       inkscape:connector-curvature="0"
       id="path50-2"
       style="display:inline;opacity:1;fill:#55514b;fill-opacity:1;fill-rule:nonzero;stroke:none"
       d="m 1071.1021,347.28041 z m -17.2271,-8.98244 25.7171,0 0,8.98241 -8.483,0.0186 -0.01,67.90428 8.4901,0 0,8.98315 -25.7172,0 0,-8.98315 8.3779,0.008 c 0,0 0.032,-36.66396 0.032,-67.81163 l 0,-0.11973 -7.7888,0 -0.6187,0.007 0,-0.95285 0,-8.03643 z"
       sodipodi:nodetypes="ccccccccccccccccccc" /><path
       inkscape:connector-curvature="0"
       id="path6026"
       d="m 913.16393,415.20327 -9.52633,0.009 0.005,8.98018 25.71575,0 -0.002,-8.98715 -6.92338,0 19.84749,-67.93701 6.15412,0.009 19.81031,67.9277 -6.89317,0.002 0,8.9825 25.72042,-0.002 0,-8.98282 -6.88812,3.1e-4 19.79173,-67.9277 6.25637,-0.009 19.7243,67.93933 -2.4635,-0.002 -4.4344,-3.2e-4 0,8.98049 25.7205,0.005 0,-8.98482 -9.4729,0.002 -19.9545,-67.95792 6.9141,0.0302 -0.01,-8.98091 -38.38884,0.003 0,8.97955 2.96784,-0.007 3.93751,0.004 -16.60833,56.49724 -16.51526,-56.50381 6.91526,0.0131 0,-8.98749 -38.44768,0 0.0358,8.95791 6.77606,0.0293 z"
       style="display:inline;opacity:1;fill:#55514b;fill-opacity:1;fill-rule:nonzero;stroke:none;stroke-width:3;stroke-linecap:round;stroke-miterlimit:4;stroke-dasharray:none;stroke-opacity:1" /><path
       style="display:inline;opacity:1;fill:#55514b;fill-opacity:1;fill-rule:nonzero;stroke:none;stroke-width:3;stroke-linecap:round;stroke-miterlimit:4;stroke-dasharray:none;stroke-opacity:1"
       d="m 913.16393,415.20327 -9.52633,0.009 0.005,8.98018 25.71575,0 -0.002,-8.98715 -6.92338,0 19.84749,-67.93701 6.15412,0.009 19.81031,67.9277 -6.89317,0.002 0,8.9825 25.72042,-0.002 0,-8.98282 -6.88812,3.1e-4 19.79173,-67.9277 6.25637,-0.009 19.7243,67.93933 -2.4635,-0.002 -4.4344,-3.2e-4 0,8.98049 25.7205,0.005 0,-8.98482 -9.4729,0.002 -19.9545,-67.95792 6.9141,0.0302 -0.01,-8.98091 -38.38884,0.003 0,8.97955 2.96784,-0.007 3.93751,0.004 -16.60833,56.49724 -16.51526,-56.50381 6.91526,0.0131 0,-8.98749 -38.44768,0 0.0358,8.95791 6.77606,0.0293 z"
       id="path6020"
       inkscape:connector-curvature="0" /></g><g
     inkscape:groupmode="layer"
     id="layer8"
     inkscape:label="KI"
     style="display:inline"><path
       style="display:inline;opacity:1;fill:#dd5b40;fill-opacity:1;fill-rule:nonzero;stroke:none;stroke-width:3;stroke-linecap:round;stroke-miterlimit:4;stroke-dasharray:none;stroke-opacity:1"
       d="m 815.08848,336.9029 -0.009,20.18253 18.87409,-0.0186 -0.0907,152.47473 -5.24829,1.4e-4 -13.5346,0.005 0,20.15194 57.72925,0.007 0.001,-20.16394 -19.05955,-0.001 0,-152.45532 19.02115,-0.0186 0.0384,-20.16394 z"
       id="path6002"
       inkscape:connector-curvature="0" /><path
       style="opacity:1;fill:#dd5b40;fill-opacity:1;fill-rule:nonzero;stroke:none;stroke-width:3;stroke-linecap:round;stroke-miterlimit:4;stroke-dasharray:none;stroke-opacity:1"
       d="m 622.26332,509.54172 -0.002,20.16347 57.73047,-0.007 -0.005,-20.1565 -19.05433,-0.002 4.9e-4,-95.00772 46.54323,-0.0102 c 33.65602,0.94658 48.75252,23.06646 48.75252,45.57393 l 0,49.4464 -18.78289,0.005 2.6e-4,20.15204 57.7302,0.007 -0.004,-20.16393 -19.05526,-0.004 0,-48.30613 c 0.74306,-38.73742 -27.23597,-55.10582 -30.89613,-56.9308 18.38447,-10.10491 30.25567,-29.00569 30.02186,-47.23369 l 3.41242,0 16.5214,0 0,-20.16394 -57.73046,0 0.0863,20.16161 17.18727,0.0116 c 0.11329,16.07559 -15.83489,36.16128 -46.34181,37.28057 l -47.44508,-0.006 0.12716,-37.22842 18.88999,-0.0557 0.0284,-20.16394 -57.71643,0 0.005,20.16394 18.88061,0.005 -0.10211,152.44493 z"
       id="path5984"
       inkscape:connector-curvature="0"
       sodipodi:nodetypes="ccccccccccccccccccccccccccccccccc" /></g></svg>